----Game at 2012-04-15 23-02-37_Algorithm----
AI vs AI game
Black AI using strategy A
White AI using strategy B

Black AI's turn using strategy A

Depth 3:
Black:
c5

	Depth 2:
	White:
	c4

		Depth 1:
		Black:
		b3
		c3
		d3
		e3
		f3
		[('b3', -97), ('c3', 5), ('d3', 403), ('e3', 5), ('f3', -97)]
		Best Move Chosen for depth 1 - (d3, 403)

	c6

		Depth 1:
		Black:
		c7
		d6
		e3
		f4
		[('c7', -197), ('d6', 403), ('e3', -197), ('f4', -197)]
		Best Move Chosen for depth 1 - (d6, 403)

	e6

		Depth 1:
		Black:
		f3
		f4
		f5
		f6
		f7
		[('f3', 3), ('f4', 3), ('f5', 303), ('f6', 303), ('f7', 3)]
		Best Move Chosen for depth 1 - (f5, 303)

	[('c4', -403), ('c6', -403), ('e6', -303)]
	Best Move Chosen for depth 2 - (e6, -303)

d6

	Depth 2:
	White:
	c4

		Depth 1:
		Black:
		b3
		c3
		d3
		e3
		f3
		[('b3', 3), ('c3', 303), ('d3', 303), ('e3', 3), ('f3', 3)]
		Best Move Chosen for depth 1 - (c3, 303)

	c6

		Depth 1:
		Black:
		b6
		c5
		e3
		f4
		[('b6', -197), ('c5', 403), ('e3', -197), ('f4', -197)]
		Best Move Chosen for depth 1 - (c5, 403)

	e6

		Depth 1:
		Black:
		f3
		f4
		f5
		f6
		f7
		[('f3', -97), ('f4', 5), ('f5', 403), ('f6', 5), ('f7', -97)]
		Best Move Chosen for depth 1 - (f5, 403)

	[('c4', -303), ('c6', -403), ('e6', -403)]
	Best Move Chosen for depth 2 - (c4, -303)

e3

	Depth 2:
	White:
	d3

		Depth 1:
		Black:
		c2
		c3
		c4
		c5
		c6
		[('c2', -97), ('c3', 5), ('c4', 403), ('c5', 5), ('c6', -97)]
		Best Move Chosen for depth 1 - (c4, 403)

	f3

		Depth 1:
		Black:
		c5
		d6
		f4
		g3
		[('c5', -197), ('d6', -197), ('f4', 403), ('g3', -197)]
		Best Move Chosen for depth 1 - (f4, 403)

	f5

		Depth 1:
		Black:
		c6
		d6
		e6
		f6
		g6
		[('c6', 3), ('d6', 3), ('e6', 303), ('f6', 303), ('g6', 3)]
		Best Move Chosen for depth 1 - (e6, 303)

	[('d3', -403), ('f3', -403), ('f5', -303)]
	Best Move Chosen for depth 2 - (f5, -303)

f4

	Depth 2:
	White:
	d3

		Depth 1:
		Black:
		c2
		c3
		c4
		c5
		c6
		[('c2', 3), ('c3', 303), ('c4', 303), ('c5', 3), ('c6', 3)]
		Best Move Chosen for depth 1 - (c3, 303)

	f3

		Depth 1:
		Black:
		c5
		d6
		e3
		f2
		[('c5', -197), ('d6', -197), ('e3', 403), ('f2', -197)]
		Best Move Chosen for depth 1 - (e3, 403)

	f5

		Depth 1:
		Black:
		c6
		d6
		e6
		f6
		g6
		[('c6', -97), ('d6', 5), ('e6', 403), ('f6', 5), ('g6', -97)]
		Best Move Chosen for depth 1 - (e6, 403)

	[('d3', -303), ('f3', -403), ('f5', -403)]
	Best Move Chosen for depth 2 - (d3, -303)

[('c5', 303), ('d6', 303), ('e3', 303), ('f4', 303)]
Best Move Chosen for depth 3 - (c5, 303)

White AI's turn using strategy B

Depth 4:
White:
c4

	Depth 3:
	Black:
	b3

		Depth 2:
		White:
		b4

			Depth 1:
			Black:
			a3
			b5
			c3
			d3
			e3
			f3
			[('a3', -197), ('b5', -297), ('c3', 205), ('d3', 103), ('e3', -195), ('f3', -197)]
			Best Move Chosen for depth 1 - (c3, 205)

		b6

			Depth 1:
			Black:
			b5
			c3
			c6
			d3
			e3
			f3
			f4
			[('b5', 203), ('c3', 3), ('c6', 203), ('d3', 3), ('e3', -197), ('f3', -197), ('f4', 5)]
			Best Move Chosen for depth 1 - (b5, 203)

		c6

			Depth 1:
			Black:
			c3
			c7
			e3
			e6
			f4
			[('c3', -197), ('c7', -297), ('e3', -195), ('e6', 103), ('f4', -195)]
			Best Move Chosen for depth 1 - (e6, 103)

		d6

			Depth 1:
			Black:
			c3
			c7
			e3
			e6
			[('c3', -97), ('c7', -297), ('e3', -195), ('e6', 303)]
			Best Move Chosen for depth 1 - (e6, 303)

		e6

			Depth 1:
			Black:
			d3
			e3
			f3
			f4
			f5
			f7
			[('d3', -97), ('e3', 3), ('f3', -197), ('f4', 5), ('f5', 3), ('f7', -97)]
			Best Move Chosen for depth 1 - (f4, 5)

		f6

			Depth 1:
			Black:
			d3
			e3
			f3
			f4
			[('d3', -97), ('e3', 3), ('f3', -197), ('f4', 5)]
			Best Move Chosen for depth 1 - (f4, 5)

		[('b4', -205), ('b6', -203), ('c6', -103), ('d6', -303), ('e6', -5), ('f6', -5)]
		Best Move Chosen for depth 2 - (e6, -5)

	c3

		Depth 2:
		White:
		b4

			Depth 1:
			Black:
			a3
			a5
			b3
			d3
			e3
			f3
			[('a3', -297), ('a5', -297), ('b3', 103), ('d3', 303), ('e3', -195), ('f3', -297)]
			Best Move Chosen for depth 1 - (d3, 303)

		c6

			Depth 1:
			Black:
			c7
			d6
			[('c7', -195), ('d6', 305)]
			Best Move Chosen for depth 1 - (d6, 305)

		e6

			Depth 1:
			Black:
			f3
			f4
			f5
			f6
			f7
			[('f3', 5), ('f4', 5), ('f5', 205), ('f6', 205), ('f7', 5)]
			Best Move Chosen for depth 1 - (f5, 205)

		[('b4', -303), ('c6', -305), ('e6', -205)]
		Best Move Chosen for depth 2 - (e6, -205)

	d3

		Depth 2:
		White:
		c2

			Depth 1:
			Black:
			b3
			b4
			c3
			d2
			e3
			f3
			f4
			[('b3', 3), ('b4', 3), ('c3', 3), ('d2', 703), ('e3', -97), ('f3', 3), ('f4', 3)]
			Best Move Chosen for depth 1 - (d2, 703)

		c6

			Depth 1:
			Black:
			b4
			b5
			b6
			d6
			e3
			f4
			f5
			[('b4', -99), ('b5', 205), ('b6', 101), ('d6', 301), ('e3', -99), ('f4', -99), ('f5', -99)]
			Best Move Chosen for depth 1 - (d6, 301)

		e2

			Depth 1:
			Black:
			b3
			b4
			c3
			d2
			[('b3', 3), ('b4', 3), ('c3', -97), ('d2', 703)]
			Best Move Chosen for depth 1 - (d2, 703)

		e6

			Depth 1:
			Black:
			b4
			b5
			c3
			d6
			[('b4', -99), ('b5', -99), ('c3', -99), ('d6', 301)]
			Best Move Chosen for depth 1 - (d6, 301)

		[('c2', -703), ('c6', -301), ('e2', -703), ('e6', -301)]
		Best Move Chosen for depth 2 - (c6, -301)

	e3

		Depth 2:
		White:
		c6

			Depth 1:
			Black:
			b3
			b4
			b5
			b6
			b7
			[('b3', 5), ('b4', 5), ('b5', 205), ('b6', 205), ('b7', 5)]
			Best Move Chosen for depth 1 - (b5, 205)

		[('c6', -205)]
		Best Move Chosen for depth 2 - (c6, -205)

	f3

		Depth 2:
		White:
		b6

			Depth 1:
			Black:
			b3
			b4
			b5
			c3
			d3
			[('b3', -197), ('b4', 5), ('b5', 3), ('c3', 3), ('d3', -97)]
			Best Move Chosen for depth 1 - (b4, 5)

		[('b6', -5)]
		Best Move Chosen for depth 2 - (b6, -5)

	[('b3', 5), ('c3', 205), ('d3', 301), ('e3', 205), ('f3', 5)]
	Best Move Chosen for depth 3 - (d3, 301)

c6

	Depth 3:
	Black:
	c7

		Depth 2:
		White:
		b5

			Depth 1:
			Black:
			a4
			a5
			b6
			c4
			d6
			e3
			f3
			f4
			[('a4', -197), ('a5', 7), ('b6', 103), ('c4', 103), ('d6', 3), ('e3', -197), ('f3', 5), ('f4', -197)]
			Best Move Chosen for depth 1 - (b6, 103)

		b7

			Depth 1:
			Black:
			a7
			d6
			[('a7', -297), ('d6', 203)]
			Best Move Chosen for depth 1 - (d6, 203)

		c4

			Depth 1:
			Black:
			c3
			e3
			f3
			[('c3', -195), ('e3', -395), ('f3', -95)]
			Best Move Chosen for depth 1 - (f3, -95)

		d3

			Depth 1:
			Black:
			c3
			e3
			[('c3', -97), ('e3', 5)]
			Best Move Chosen for depth 1 - (e3, 5)

		e6

			Depth 1:
			Black:
			d6
			f3
			[('d6', -97), ('f3', 5)]
			Best Move Chosen for depth 1 - (f3, 5)

		f5

			Depth 1:
			Black:
			d6
			f3
			[('d6', -97), ('f3', 5)]
			Best Move Chosen for depth 1 - (f3, 5)

		[('b5', -103), ('b7', -203), ('c4', 95), ('d3', -5), ('e6', -5), ('f5', -5)]
		Best Move Chosen for depth 2 - (c4, 95)

	d6

		Depth 2:
		White:
		c4

			Depth 1:
			Black:
			b3
			[('b3', 301)]
			Best Move Chosen for depth 1 - (b3, 301)

		e6

			Depth 1:
			Black:
			b7
			c7
			d7
			[('b7', 1), ('c7', -99), ('d7', 301)]
			Best Move Chosen for depth 1 - (d7, 301)

		[('c4', -301), ('e6', -301)]
		Best Move Chosen for depth 2 - (c4, -301)

	[('c7', -95), ('d6', 301)]
	Best Move Chosen for depth 3 - (d6, 301)

e6

	Depth 3:
	Black:
	f3

		Depth 2:
		White:
		b5

			Depth 1:
			Black:
			b6
			c6
			[('b6', 201), ('c6', 301)]
			Best Move Chosen for depth 1 - (c6, 301)

		c3

			Depth 1:
			Black:
			c4
			d3
			[('c4', 203), ('d3', 303)]
			Best Move Chosen for depth 1 - (d3, 303)

		c4

			Depth 1:
			Black:
			b4
			c3
			c6
			d6
			e7
			f5
			f6
			[('b4', 3), ('c3', 3), ('c6', 203), ('d6', 203), ('e7', -195), ('f5', 205), ('f6', -297)]
			Best Move Chosen for depth 1 - (f5, 205)

		e3

			Depth 1:
			Black:
			d3
			f2
			f4
			[('d3', -197), ('f2', -97), ('f4', 303)]
			Best Move Chosen for depth 1 - (f4, 303)

		[('b5', -301), ('c3', -303), ('c4', -205), ('e3', -303)]
		Best Move Chosen for depth 2 - (c4, -205)

	f4

		Depth 2:
		White:
		b5

			Depth 1:
			Black:
			b6
			c6
			[('b6', 101), ('c6', 301)]
			Best Move Chosen for depth 1 - (c6, 301)

		c3

			Depth 1:
			Black:
			c4
			d3
			[('c4', 203), ('d3', 303)]
			Best Move Chosen for depth 1 - (d3, 303)

		c4

			Depth 1:
			Black:
			b4
			c3
			c6
			d6
			[('b4', -97), ('c3', -97), ('c6', 203), ('d6', 305)]
			Best Move Chosen for depth 1 - (d6, 305)

		e3

			Depth 1:
			Black:
			d2
			d6
			f2
			f3
			[('d2', -97), ('d6', 203), ('f2', -97), ('f3', 303)]
			Best Move Chosen for depth 1 - (f3, 303)

		g3

			Depth 1:
			Black:
			e7
			f5
			f6
			f7
			g4
			[('e7', 5), ('f5', 103), ('f6', 103), ('f7', -197), ('g4', 203)]
			Best Move Chosen for depth 1 - (g4, 203)

		[('b5', -301), ('c3', -303), ('c4', -305), ('e3', -303), ('g3', -203)]
		Best Move Chosen for depth 2 - (g3, -203)

	f5

		Depth 2:
		White:
		c4

			Depth 1:
			Black:
			c3
			d3
			d7
			e3
			e7
			[('c3', 3), ('d3', -299), ('d7', -399), ('e3', -197), ('e7', -399)]
			Best Move Chosen for depth 1 - (c3, 3)

		[('c4', -3)]
		Best Move Chosen for depth 2 - (c4, -3)

	f6

		Depth 2:
		White:
		c4

			Depth 1:
			Black:
			c3
			d6
			e3
			e7
			[('c3', -97), ('d6', -399), ('e3', -297), ('e7', -399)]
			Best Move Chosen for depth 1 - (c3, -97)

		[('c4', 97)]
		Best Move Chosen for depth 2 - (c4, 97)

	f7

		Depth 2:
		White:
		b5

			Depth 1:
			Black:
			b6
			c4
			[('b6', 201), ('c4', 301)]
			Best Move Chosen for depth 1 - (c4, 301)

		c3

			Depth 1:
			Black:
			d3
			e3
			f3
			f5
			[('d3', 103), ('e3', 7), ('f3', -197), ('f5', -197)]
			Best Move Chosen for depth 1 - (d3, 103)

		[('b5', -301), ('c3', -103)]
		Best Move Chosen for depth 2 - (c3, -103)

	[('f3', 205), ('f4', 203), ('f5', 3), ('f6', -97), ('f7', 103)]
	Best Move Chosen for depth 3 - (f3, 205)

[('c4', -301), ('c6', -301), ('e6', -205)]
Best Move Chosen for depth 4 - (e6, -205)

Black AI's turn using strategy A

Depth 3:
Black:
f3

	Depth 2:
	White:
	b5

		Depth 1:
		Black:
		b6
		c6
		d6
		e7
		f6
		[('b6', 201), ('c6', 301), ('d6', 201), ('e7', 3), ('f6', 1)]
		Best Move Chosen for depth 1 - (c6, 301)

	c3

		Depth 1:
		Black:
		c4
		d3
		e3
		e7
		f5
		f7
		[('c4', 203), ('d3', 303), ('e3', 203), ('e7', 5), ('f5', 3), ('f7', -197)]
		Best Move Chosen for depth 1 - (d3, 303)

	c4

		Depth 1:
		Black:
		b4
		c3
		c6
		d6
		e7
		f5
		f6
		[('b4', 3), ('c3', 3), ('c6', 203), ('d6', 203), ('e7', -195), ('f5', 205), ('f6', -297)]
		Best Move Chosen for depth 1 - (f5, 205)

	e3

		Depth 1:
		Black:
		d3
		f2
		f4
		f5
		f6
		f7
		[('d3', -197), ('f2', -97), ('f4', 303), ('f5', 3), ('f6', 103), ('f7', -197)]
		Best Move Chosen for depth 1 - (f4, 303)

	[('b5', -301), ('c3', -303), ('c4', -205), ('e3', -303)]
	Best Move Chosen for depth 2 - (c4, -205)

f4

	Depth 2:
	White:
	b5

		Depth 1:
		Black:
		b6
		c6
		d6
		e7
		f6
		[('b6', 101), ('c6', 301), ('d6', 103), ('e7', 3), ('f6', 1)]
		Best Move Chosen for depth 1 - (c6, 301)

	c3

		Depth 1:
		Black:
		c4
		d3
		d6
		e3
		e7
		f5
		f7
		[('c4', 203), ('d3', 303), ('d6', 3), ('e3', 203), ('e7', 5), ('f5', 103), ('f7', -197)]
		Best Move Chosen for depth 1 - (d3, 303)

	c4

		Depth 1:
		Black:
		b4
		c3
		c6
		d6
		e7
		f5
		f6
		[('b4', -97), ('c3', -97), ('c6', 203), ('d6', 305), ('e7', -195), ('f5', 305), ('f6', -297)]
		Best Move Chosen for depth 1 - (d6, 305)

	e3

		Depth 1:
		Black:
		d2
		d6
		f2
		f3
		f5
		f6
		f7
		[('d2', -97), ('d6', 203), ('f2', -97), ('f3', 303), ('f5', 203), ('f6', 103), ('f7', -197)]
		Best Move Chosen for depth 1 - (f3, 303)

	g3

		Depth 1:
		Black:
		e7
		f5
		f6
		f7
		g4
		[('e7', 5), ('f5', 103), ('f6', 103), ('f7', -197), ('g4', 203)]
		Best Move Chosen for depth 1 - (g4, 203)

	[('b5', -301), ('c3', -303), ('c4', -305), ('e3', -303), ('g3', -203)]
	Best Move Chosen for depth 2 - (g3, -203)

f5

	Depth 2:
	White:
	c4

		Depth 1:
		Black:
		c3
		d3
		d7
		e3
		e7
		[('c3', 3), ('d3', -299), ('d7', -399), ('e3', -197), ('e7', -399)]
		Best Move Chosen for depth 1 - (c3, 3)

	c6

		Depth 1:
		Black:
		c7
		d3
		d6
		d7
		e3
		e7
		f4
		[('c7', 3), ('d3', -197), ('d6', 803), ('d7', -97), ('e3', -197), ('e7', -97), ('f4', -197)]
		Best Move Chosen for depth 1 - (d6, 803)

	g4

		Depth 1:
		Black:
		e3
		e7
		f3
		f4
		f7
		g5
		[('e3', 3), ('e7', 3), ('f3', 3), ('f4', 103), ('f7', 3), ('g5', 603)]
		Best Move Chosen for depth 1 - (g5, 603)

	g6

		Depth 1:
		Black:
		e3
		e7
		f3
		f4
		f7
		g5
		[('e3', 3), ('e7', 3), ('f3', 3), ('f4', 3), ('f7', 3), ('g5', 603)]
		Best Move Chosen for depth 1 - (g5, 603)

	[('c4', -3), ('c6', -803), ('g4', -603), ('g6', -603)]
	Best Move Chosen for depth 2 - (c4, -3)

f6

	Depth 2:
	White:
	c4

		Depth 1:
		Black:
		c3
		d6
		e3
		e7
		[('c3', -97), ('d6', -399), ('e3', -297), ('e7', -399)]
		Best Move Chosen for depth 1 - (c3, -97)

	c6

		Depth 1:
		Black:
		c7
		d6
		e3
		e7
		f4
		[('c7', -97), ('d6', 305), ('e3', -297), ('e7', -97), ('f4', -297)]
		Best Move Chosen for depth 1 - (d6, 305)

	g6

		Depth 1:
		Black:
		e3
		e7
		f3
		f4
		f7
		g7
		[('e3', 3), ('e7', 3), ('f3', 3), ('f4', 3), ('f7', 3), ('g7', 503)]
		Best Move Chosen for depth 1 - (g7, 503)

	[('c4', 97), ('c6', -305), ('g6', -503)]
	Best Move Chosen for depth 2 - (c4, 97)

f7

	Depth 2:
	White:
	b5

		Depth 1:
		Black:
		b6
		c4
		d6
		e3
		f4
		f6
		[('b6', 201), ('c4', 301), ('d6', 201), ('e3', 3), ('f4', -199), ('f6', 1)]
		Best Move Chosen for depth 1 - (c4, 301)

	c3

		Depth 1:
		Black:
		d3
		e3
		f3
		f5
		[('d3', 103), ('e3', 7), ('f3', -197), ('f5', -197)]
		Best Move Chosen for depth 1 - (d3, 103)

	c4

		Depth 1:
		Black:
		b3
		c3
		d3
		e3
		f3
		f5
		[('b3', -97), ('c3', -97), ('d3', 203), ('e3', 7), ('f3', -197), ('f5', -197)]
		Best Move Chosen for depth 1 - (d3, 203)

	c6

		Depth 1:
		Black:
		c4
		c7
		d6
		e3
		f4
		f5
		f6
		[('c4', 303), ('c7', 3), ('d6', 203), ('e3', -195), ('f4', -297), ('f5', 305), ('f6', -97)]
		Best Move Chosen for depth 1 - (f5, 305)

	e7

		Depth 1:
		Black:
		d7
		f3
		f4
		f5
		f6
		[('d7', -197), ('f3', -197), ('f4', -197), ('f5', 3), ('f6', 103)]
		Best Move Chosen for depth 1 - (f6, 103)

	[('b5', -301), ('c3', -103), ('c4', -203), ('c6', -305), ('e7', -103)]
	Best Move Chosen for depth 2 - (c3, -103)

[('f3', 205), ('f4', 203), ('f5', 3), ('f6', -97), ('f7', 103)]
Best Move Chosen for depth 3 - (f3, 205)

White AI's turn using strategy B

Depth 4:
White:
b5

	Depth 3:
	Black:
	b6

		Depth 2:
		White:
		b7

			Depth 1:
			Black:
			a5
			a7
			c6
			d6
			e7
			f5
			f6
			[('a5', 301), ('a7', 501), ('c6', 301), ('d6', 201), ('e7', 3), ('f5', 103), ('f6', 1)]
			Best Move Chosen for depth 1 - (a7, 501)

		c3

			Depth 1:
			Black:
			a5
			b4
			c4
			[('a5', 101), ('b4', 101), ('c4', 501)]
			Best Move Chosen for depth 1 - (c4, 501)

		d3

			Depth 1:
			Black:
			a5
			b4
			c2
			c4
			[('a5', 101), ('b4', 1), ('c2', 201), ('c4', 601)]
			Best Move Chosen for depth 1 - (c4, 601)

		e3

			Depth 1:
			Black:
			a5
			b4
			c6
			d3
			d6
			f2
			f4
			f5
			f6
			[('a5', 101), ('b4', 1), ('c6', 403), ('d3', 101), ('d6', 1), ('f2', 201), ('f4', 401), ('f5', 3), ('f6', 101)]
			Best Move Chosen for depth 1 - (c6, 403)

		g2

			Depth 1:
			Black:
			a5
			b4
			d6
			f4
			f5
			f6
			[('a5', 99), ('b4', -1), ('d6', 199), ('f4', 299), ('f5', 301), ('f6', 99)]
			Best Move Chosen for depth 1 - (f5, 301)

		[('b7', -501), ('c3', -501), ('d3', -601), ('e3', -403), ('g2', -301)]
		Best Move Chosen for depth 2 - (g2, -301)

	c6

		Depth 2:
		White:
		c3

			Depth 1:
			Black:
			a4
			a5
			c4
			d3
			e7
			f5
			f7
			[('a4', -99), ('a5', 103), ('c4', 403), ('d3', 601), ('e7', -97), ('f5', -99), ('f7', -99)]
			Best Move Chosen for depth 1 - (d3, 601)

		c4

			Depth 1:
			Black:
			a4
			b4
			b6
			c3
			d6
			e7
			f6
			[('a4', -99), ('b4', -199), ('b6', 1), ('c3', 103), ('d6', 401), ('e7', -197), ('f6', -199)]
			Best Move Chosen for depth 1 - (d6, 401)

		c7

			Depth 1:
			Black:
			a5
			b6
			b7
			[('a5', 203), ('b6', 301), ('b7', 501)]
			Best Move Chosen for depth 1 - (b7, 501)

		d7

			Depth 1:
			Black:
			a5
			b6
			b7
			[('a5', 203), ('b6', 301), ('b7', 501)]
			Best Move Chosen for depth 1 - (b7, 501)

		e3

			Depth 1:
			Black:
			a4
			a5
			c4
			d3
			f5
			f7
			[('a4', -301), ('a5', -199), ('c4', -101), ('d3', 1), ('f5', -201), ('f7', -101)]
			Best Move Chosen for depth 1 - (d3, 1)

		[('c3', -601), ('c4', -401), ('c7', -501), ('d7', -501), ('e3', -1)]
		Best Move Chosen for depth 2 - (e3, -1)

	d6

		Depth 2:
		White:
		c3

			Depth 1:
			Black:
			a5
			b4
			c4
			d3
			e7
			f4
			f5
			f6
			f7
			[('a5', 103), ('b4', 201), ('c4', 601), ('d3', 501), ('e7', 3), ('f4', 1), ('f5', 1), ('f6', 101), ('f7', 101)]
			Best Move Chosen for depth 1 - (c4, 601)

		c4

			Depth 1:
			Black:
			b4
			b6
			c6
			e7
			f4
			f6
			[('b4', 103), ('b6', -99), ('c6', 401), ('e7', -297), ('f4', -199), ('f6', -297)]
			Best Move Chosen for depth 1 - (c6, 401)

		c6

			Depth 1:
			Black:
			a5
			b6
			b7
			d7
			e7
			f5
			f6
			f7
			[('a5', 3), ('b6', 101), ('b7', 201), ('d7', 201), ('e7', -97), ('f5', 1), ('f6', 1), ('f7', 1)]
			Best Move Chosen for depth 1 - (b7, 201)

		[('c3', -601), ('c4', -401), ('c6', -201)]
		Best Move Chosen for depth 2 - (c6, -201)

	e7

		Depth 2:
		White:
		d3

			Depth 1:
			Black:
			a5
			c2
			c3
			c4
			c6
			[('a5', 7), ('c2', -97), ('c3', 303), ('c4', 305), ('c6', 3)]
			Best Move Chosen for depth 1 - (c4, 305)

		e3

			Depth 1:
			Black:
			a5
			c3
			c4
			c6
			d3
			e2
			[('a5', -93), ('c3', 203), ('c4', 205), ('c6', -197), ('d3', -97), ('e2', -97)]
			Best Move Chosen for depth 1 - (c4, 205)

		[('d3', -305), ('e3', -205)]
		Best Move Chosen for depth 2 - (e3, -205)

	f6

		Depth 2:
		White:
		d3

			Depth 1:
			Black:
			a5
			c2
			c3
			c4
			c6
			d6
			e7
			[('a5', 5), ('c2', -99), ('c3', 301), ('c4', 401), ('c6', 1), ('d6', 1), ('e7', 1)]
			Best Move Chosen for depth 1 - (c4, 401)

		e3

			Depth 1:
			Black:
			c3
			c6
			d3
			d6
			[('c3', 299), ('c6', 199), ('d3', -103), ('d6', -3)]
			Best Move Chosen for depth 1 - (c3, 299)

		[('d3', -401), ('e3', -299)]
		Best Move Chosen for depth 2 - (e3, -299)

	[('b6', 301), ('c6', 1), ('d6', 201), ('e7', 205), ('f6', 299)]
	Best Move Chosen for depth 3 - (b6, 301)

c3

	Depth 3:
	Black:
	c4

		Depth 2:
		White:
		b3

			Depth 1:
			Black:
			b2
			b4
			[('b2', -199), ('b4', 401)]
			Best Move Chosen for depth 1 - (b4, 401)

		b5

			Depth 1:
			Black:
			a6
			[('a6', 401)]
			Best Move Chosen for depth 1 - (a6, 401)

		c6

			Depth 1:
			Black:
			b2
			[('b2', 501)]
			Best Move Chosen for depth 1 - (b2, 501)

		e3

			Depth 1:
			Black:
			b2
			c2
			d3
			f2
			f4
			[('b2', -197), ('c2', -197), ('d3', 3), ('f2', 103), ('f4', 503)]
			Best Move Chosen for depth 1 - (f4, 503)

		[('b3', -401), ('b5', -401), ('c6', -501), ('e3', -503)]
		Best Move Chosen for depth 2 - (b3, -401)

	[('c4', 401)]
	Best Move Chosen for depth 3 - (c4, 401)

c4

	Depth 3:
	Black:
	b4

		Depth 2:
		White:
		b3

			Depth 1:
			Black:
			b2
			c3
			[('b2', -197), ('c3', 403)]
			Best Move Chosen for depth 1 - (c3, 403)

		b5

			Depth 1:
			Black:
			a6
			b6
			c6
			d6
			e7
			f6
			f7
			[('a6', 3), ('b6', 5), ('c6', 305), ('d6', 205), ('e7', -295), ('f6', -97), ('f7', 105)]
			Best Move Chosen for depth 1 - (c6, 305)

		c3

			Depth 1:
			Black:
			c2
			c6
			d2
			e3
			e7
			f5
			f7
			[('c2', -197), ('c6', -197), ('d2', -197), ('e3', 203), ('e7', -595), ('f5', -195), ('f7', -395)]
			Best Move Chosen for depth 1 - (e3, 203)

		d3

			Depth 1:
			Black:
			c2
			c6
			e2
			e3
			[('c2', -197), ('c6', -97), ('e2', -197), ('e3', 303)]
			Best Move Chosen for depth 1 - (e3, 303)

		e3

			Depth 1:
			Black:
			c6
			[('c6', 205)]
			Best Move Chosen for depth 1 - (c6, 205)

		g2

			Depth 1:
			Black:
			d6
			f4
			f5
			[('d6', -99), ('f4', 101), ('f5', 203)]
			Best Move Chosen for depth 1 - (f5, 203)

		[('b3', -403), ('b5', -305), ('c3', -203), ('d3', -303), ('e3', -205), ('g2', -203)]
		Best Move Chosen for depth 2 - (c3, -203)

	c3

		Depth 2:
		White:
		b2

			Depth 1:
			Black:
			c2
			c6
			e3
			e7
			f5
			f7
			[('c2', 1), ('c6', -199), ('e3', 201), ('e7', -597), ('f5', -197), ('f7', -397)]
			Best Move Chosen for depth 1 - (e3, 201)

		[('b2', -201)]
		Best Move Chosen for depth 2 - (b2, -201)

	c6

		Depth 2:
		White:
		b5

			Depth 1:
			Black:
			a4
			b4
			b6
			c3
			d6
			[('a4', -99), ('b4', -199), ('b6', 1), ('c3', 103), ('d6', 401)]
			Best Move Chosen for depth 1 - (d6, 401)

		c3

			Depth 1:
			Black:
			b3
			b4
			c2
			d3
			[('b3', -297), ('b4', 205), ('c2', -195), ('d3', 403)]
			Best Move Chosen for depth 1 - (d3, 403)

		c7

			Depth 1:
			Black:
			b3
			[('b3', 401)]
			Best Move Chosen for depth 1 - (b3, 401)

		e3

			Depth 1:
			Black:
			b3
			b4
			c3
			d3
			f2
			f4
			[('b3', -197), ('b4', -197), ('c3', -197), ('d3', 203), ('f2', 203), ('f4', 503)]
			Best Move Chosen for depth 1 - (f4, 503)

		f4

			Depth 1:
			Black:
			b3
			c3
			d3
			e3
			f5
			f7
			[('b3', -299), ('c3', -299), ('d3', 1), ('e3', 101), ('f5', 3), ('f7', -399)]
			Best Move Chosen for depth 1 - (e3, 101)

		[('b5', -401), ('c3', -403), ('c7', -401), ('e3', -503), ('f4', -101)]
		Best Move Chosen for depth 2 - (f4, -101)

	d6

		Depth 2:
		White:
		b5

			Depth 1:
			Black:
			b4
			b6
			c6
			[('b4', 103), ('b6', -99), ('c6', 401)]
			Best Move Chosen for depth 1 - (c6, 401)

		c3

			Depth 1:
			Black:
			b3
			b4
			c2
			d3
			[('b3', -197), ('b4', 205), ('c2', -295), ('d3', 403)]
			Best Move Chosen for depth 1 - (d3, 403)

		c6

			Depth 1:
			Black:
			b3
			[('b3', 401)]
			Best Move Chosen for depth 1 - (b3, 401)

		c7

			Depth 1:
			Black:
			b3
			b4
			c3
			d7
			e7
			f5
			f6
			f7
			[('b3', -97), ('b4', -97), ('c3', -97), ('d7', 303), ('e7', 107), ('f5', 103), ('f6', 203), ('f7', -197)]
			Best Move Chosen for depth 1 - (d7, 303)

		e3

			Depth 1:
			Black:
			b3
			b4
			c3
			d3
			f2
			f4
			[('b3', -297), ('b4', -297), ('c3', -297), ('d3', 203), ('f2', 203), ('f4', 505)]
			Best Move Chosen for depth 1 - (f4, 505)

		f4

			Depth 1:
			Black:
			b3
			c3
			d3
			e3
			f5
			f6
			f7
			g3
			[('b3', -199), ('c3', -299), ('d3', 101), ('e3', 201), ('f5', 203), ('f6', -399), ('f7', -299), ('g3', 203)]
			Best Move Chosen for depth 1 - (f5, 203)

		[('b5', -401), ('c3', -403), ('c6', -401), ('c7', -303), ('e3', -505), ('f4', -203)]
		Best Move Chosen for depth 2 - (f4, -203)

	e7

		Depth 2:
		White:
		b5

			Depth 1:
			Black:
			a5
			b3
			b4
			b6
			c6
			d6
			[('a5', 9), ('b3', 7), ('b4', -295), ('b6', -95), ('c6', 5), ('d6', -95)]
			Best Move Chosen for depth 1 - (a5, 9)

		[('b5', -9)]
		Best Move Chosen for depth 2 - (b5, -9)

	f5

		Depth 2:
		White:
		c6

			Depth 1:
			Black:
			b3
			b4
			b5
			[('b3', 105), ('b4', 105), ('b5', 305)]
			Best Move Chosen for depth 1 - (b5, 305)

		e3

			Depth 1:
			Black:
			b3
			b4
			c3
			d3
			d7
			f2
			f4
			[('b3', -497), ('b4', -497), ('c3', -497), ('d3', 105), ('d7', -197), ('f2', 103), ('f4', 503)]
			Best Move Chosen for depth 1 - (f4, 503)

		f4

			Depth 1:
			Black:
			b3
			c3
			d3
			d7
			e3
			e7
			f7
			g3
			[('b3', -197), ('c3', -195), ('d3', 205), ('d7', -397), ('e3', 205), ('e7', -397), ('f7', -397), ('g3', 103)]
			Best Move Chosen for depth 1 - (d3, 205)

		g4

			Depth 1:
			Black:
			b3
			b4
			c3
			e7
			f7
			g5
			[('b3', 5), ('b4', 5), ('c3', 5), ('e7', 5), ('f7', 5), ('g5', 405)]
			Best Move Chosen for depth 1 - (g5, 405)

		[('c6', -305), ('e3', -503), ('f4', -205), ('g4', -405)]
		Best Move Chosen for depth 2 - (f4, -205)

	f6

		Depth 2:
		White:
		b5

			Depth 1:
			Black:
			a5
			b4
			b6
			c6
			[('a5', 207), ('b4', -97), ('b6', -197), ('c6', 303)]
			Best Move Chosen for depth 1 - (c6, 303)

		c6

			Depth 1:
			Black:
			b4
			b5
			[('b4', -97), ('b5', 405)]
			Best Move Chosen for depth 1 - (b5, 405)

		d3

			Depth 1:
			Black:
			b4
			c2
			c3
			c6
			d6
			e3
			e7
			[('b4', 105), ('c2', -397), ('c3', 205), ('c6', 103), ('d6', -197), ('e3', -97), ('e7', -197)]
			Best Move Chosen for depth 1 - (c3, 205)

		[('b5', -303), ('c6', -405), ('d3', -205)]
		Best Move Chosen for depth 2 - (d3, -205)

	[('b4', 203), ('c3', 201), ('c6', 101), ('d6', 203), ('e7', 9), ('f5', 205), ('f6', 205)]
	Best Move Chosen for depth 3 - (f5, 205)

e3

	Depth 3:
	Black:
	d3

		Depth 2:
		White:
		b5

			Depth 1:
			Black:
			b6
			c6
			d6
			e7
			f4
			f5
			f6
			[('b6', 101), ('c6', 203), ('d6', -99), ('e7', 5), ('f4', -99), ('f5', 1), ('f6', -99)]
			Best Move Chosen for depth 1 - (c6, 203)

		c2

			Depth 1:
			Black:
			c3
			d2
			e7
			f4
			f5
			f6
			f7
			[('c3', 103), ('d2', 103), ('e7', 7), ('f4', 103), ('f5', -97), ('f6', -97), ('f7', -397)]
			Best Move Chosen for depth 1 - (c3, 103)

		c3

			Depth 1:
			Black:
			b3
			e7
			f5
			f7
			[('b3', -697), ('e7', -393), ('f5', -395), ('f7', -897)]
			Best Move Chosen for depth 1 - (e7, -393)

		c4

			Depth 1:
			Black:
			b5
			[('b5', -299)]
			Best Move Chosen for depth 1 - (b5, -299)

		c6

			Depth 1:
			Black:
			b7
			[('b7', 7)]
			Best Move Chosen for depth 1 - (b7, 7)

		e2

			Depth 1:
			Black:
			d1
			[('d1', -297)]
			Best Move Chosen for depth 1 - (d1, -297)

		g2

			Depth 1:
			Black:
			e7
			[('e7', 7)]
			Best Move Chosen for depth 1 - (e7, 7)

		[('b5', -203), ('c2', -103), ('c3', 393), ('c4', 299), ('c6', -7), ('e2', 297), ('g2', -7)]
		Best Move Chosen for depth 2 - (c3, 393)

	f2

		Depth 2:
		White:
		b5

			Depth 1:
			Black:
			b6
			c6
			d6
			e7
			f4
			f6
			[('b6', 201), ('c6', 203), ('d6', 1), ('e7', 5), ('f4', -99), ('f6', -99)]
			Best Move Chosen for depth 1 - (c6, 203)

		c3

			Depth 1:
			Black:
			d3
			e7
			f5
			f7
			[('d3', 3), ('e7', -193), ('f5', -497), ('f7', -597)]
			Best Move Chosen for depth 1 - (d3, 3)

		c4

			Depth 1:
			Black:
			c3
			c6
			[('c3', -199), ('c6', 3)]
			Best Move Chosen for depth 1 - (c6, 3)

		c6

			Depth 1:
			Black:
			b7
			[('b7', 7)]
			Best Move Chosen for depth 1 - (b7, 7)

		e2

			Depth 1:
			Black:
			d1
			d2
			d3
			[('d1', -297), ('d2', -397), ('d3', 203)]
			Best Move Chosen for depth 1 - (d3, 203)

		g2

			Depth 1:
			Black:
			e7
			[('e7', 7)]
			Best Move Chosen for depth 1 - (e7, 7)

		[('b5', -203), ('c3', -3), ('c4', -3), ('c6', -7), ('e2', -203), ('g2', -7)]
		Best Move Chosen for depth 2 - (c3, -3)

	f4

		Depth 2:
		White:
		b5

			Depth 1:
			Black:
			b6
			[('b6', 401)]
			Best Move Chosen for depth 1 - (b6, 401)

		b6

			Depth 1:
			Black:
			b5
			[('b5', 401)]
			Best Move Chosen for depth 1 - (b5, 401)

		c3

			Depth 1:
			Black:
			c4
			[('c4', 503)]
			Best Move Chosen for depth 1 - (c4, 503)

		c4

			Depth 1:
			Black:
			b4
			c3
			c6
			[('b4', 203), ('c3', 203), ('c6', 503)]
			Best Move Chosen for depth 1 - (c6, 503)

		g3

			Depth 1:
			Black:
			e2
			e7
			f2
			f5
			f6
			f7
			g2
			g4
			[('e2', 1), ('e7', 3), ('f2', 1), ('f5', 201), ('f6', 301), ('f7', 1), ('g2', 301), ('g4', 201)]
			Best Move Chosen for depth 1 - (f6, 301)

		g5

			Depth 1:
			Black:
			d3
			e2
			e7
			f2
			f5
			[('d3', 3), ('e2', 3), ('e7', 5), ('f2', 3), ('f5', 405)]
			Best Move Chosen for depth 1 - (f5, 405)

		[('b5', -401), ('b6', -401), ('c3', -503), ('c4', -503), ('g3', -301), ('g5', -405)]
		Best Move Chosen for depth 2 - (g3, -301)

	[('d3', -393), ('f2', 3), ('f4', 301)]
	Best Move Chosen for depth 3 - (f4, 301)

[('b5', -301), ('c3', -401), ('c4', -205), ('e3', -301)]
Best Move Chosen for depth 4 - (c4, -205)

Black AI's turn using strategy A

Depth 3:
Black:
b4

	Depth 2:
	White:
	b3

		Depth 1:
		Black:
		b2
		c3
		c6
		d6
		e7
		f5
		f6
		[('b2', -197), ('c3', 403), ('c6', 103), ('d6', 103), ('e7', -295), ('f5', 5), ('f6', -397)]
		Best Move Chosen for depth 1 - (c3, 403)

	b5

		Depth 1:
		Black:
		a6
		b6
		c6
		d6
		e7
		f6
		f7
		[('a6', 3), ('b6', 5), ('c6', 305), ('d6', 205), ('e7', -295), ('f6', -97), ('f7', 105)]
		Best Move Chosen for depth 1 - (c6, 305)

	c3

		Depth 1:
		Black:
		c2
		c6
		d2
		e3
		e7
		f5
		f7
		[('c2', -197), ('c6', -197), ('d2', -197), ('e3', 203), ('e7', -595), ('f5', -195), ('f7', -395)]
		Best Move Chosen for depth 1 - (e3, 203)

	d3

		Depth 1:
		Black:
		c2
		c6
		e2
		e3
		e7
		f5
		f7
		[('c2', -197), ('c6', -97), ('e2', -197), ('e3', 303), ('e7', -395), ('f5', -195), ('f7', -295)]
		Best Move Chosen for depth 1 - (e3, 303)

	e3

		Depth 1:
		Black:
		c6
		d3
		d6
		f2
		f4
		f5
		f6
		f7
		[('c6', 205), ('d3', -97), ('d6', -297), ('f2', 3), ('f4', 203), ('f5', -95), ('f6', -97), ('f7', -195)]
		Best Move Chosen for depth 1 - (c6, 205)

	g2

		Depth 1:
		Black:
		d6
		f4
		f5
		f6
		f7
		[('d6', -99), ('f4', 101), ('f5', 203), ('f6', -99), ('f7', 3)]
		Best Move Chosen for depth 1 - (f5, 203)

	[('b3', -403), ('b5', -305), ('c3', -203), ('d3', -303), ('e3', -205), ('g2', -203)]
	Best Move Chosen for depth 2 - (c3, -203)

c3

	Depth 2:
	White:
	b2

		Depth 1:
		Black:
		c2
		c6
		e3
		e7
		f5
		f7
		[('c2', 1), ('c6', -199), ('e3', 201), ('e7', -597), ('f5', -197), ('f7', -397)]
		Best Move Chosen for depth 1 - (e3, 201)

	b3

		Depth 1:
		Black:
		a3
		b4
		c6
		d6
		e7
		f5
		f6
		[('a3', -197), ('b4', 403), ('c6', 3), ('d6', 3), ('e7', -295), ('f5', 5), ('f6', -397)]
		Best Move Chosen for depth 1 - (b4, 403)

	b5

		Depth 1:
		Black:
		a6
		b6
		c6
		d6
		e7
		f6
		f7
		[('a6', 3), ('b6', 303), ('c6', 205), ('d6', 203), ('e7', -195), ('f6', 3), ('f7', 105)]
		Best Move Chosen for depth 1 - (b6, 303)

	d3

		Depth 1:
		Black:
		c2
		c6
		e2
		e3
		e7
		f5
		f6
		f7
		[('c2', -197), ('c6', -97), ('e2', -197), ('e3', 5), ('e7', -595), ('f5', -395), ('f6', 205), ('f7', -395)]
		Best Move Chosen for depth 1 - (f6, 205)

	e3

		Depth 1:
		Black:
		c6
		d3
		d6
		f2
		f4
		f5
		f6
		f7
		[('c6', 205), ('d3', -97), ('d6', -297), ('f2', 3), ('f4', 203), ('f5', -95), ('f6', -97), ('f7', -195)]
		Best Move Chosen for depth 1 - (c6, 205)

	g2

		Depth 1:
		Black:
		d6
		f4
		f5
		f6
		f7
		[('d6', -99), ('f4', 101), ('f5', 203), ('f6', -99), ('f7', 3)]
		Best Move Chosen for depth 1 - (f5, 203)

	[('b2', -201), ('b3', -403), ('b5', -303), ('d3', -205), ('e3', -205), ('g2', -203)]
	Best Move Chosen for depth 2 - (b2, -201)

c6

	Depth 2:
	White:
	b5

		Depth 1:
		Black:
		a4
		b4
		b6
		c3
		d6
		e7
		f6
		[('a4', -99), ('b4', -199), ('b6', 1), ('c3', 103), ('d6', 401), ('e7', -197), ('f6', -199)]
		Best Move Chosen for depth 1 - (d6, 401)

	c3

		Depth 1:
		Black:
		b3
		b4
		c2
		d3
		e3
		e7
		f5
		f7
		[('b3', -297), ('b4', 205), ('c2', -195), ('d3', 403), ('e3', 403), ('e7', 5), ('f5', 203), ('f7', -197)]
		Best Move Chosen for depth 1 - (d3, 403)

	c7

		Depth 1:
		Black:
		b3
		b4
		b5
		b6
		b7
		e7
		f5
		f6
		f7
		[('b3', 401), ('b4', 401), ('b5', 401), ('b6', 401), ('b7', 701), ('e7', 3), ('f5', 301), ('f6', 301), ('f7', 101)]
		Best Move Chosen for depth 1 - (b7, 701)

	e3

		Depth 1:
		Black:
		b3
		b4
		c3
		d3
		f2
		f4
		f5
		f6
		f7
		[('b3', -197), ('b4', -197), ('c3', -197), ('d3', 203), ('f2', 203), ('f4', 503), ('f5', 303), ('f6', 403), ('f7', 3)]
		Best Move Chosen for depth 1 - (f4, 503)

	f4

		Depth 1:
		Black:
		b3
		c3
		d3
		e3
		f5
		f7
		[('b3', -299), ('c3', -299), ('d3', 1), ('e3', 101), ('f5', 3), ('f7', -399)]
		Best Move Chosen for depth 1 - (e3, 101)

	[('b5', -401), ('c3', -403), ('c7', -701), ('e3', -503), ('f4', -101)]
	Best Move Chosen for depth 2 - (f4, -101)

d6

	Depth 2:
	White:
	b5

		Depth 1:
		Black:
		b4
		b6
		c6
		e7
		f4
		f6
		[('b4', 103), ('b6', -99), ('c6', 401), ('e7', -297), ('f4', -199), ('f6', -297)]
		Best Move Chosen for depth 1 - (c6, 401)

	c3

		Depth 1:
		Black:
		b3
		b4
		c2
		d3
		e3
		e7
		f4
		f5
		f6
		f7
		[('b3', -197), ('b4', 205), ('c2', -295), ('d3', 403), ('e3', 403), ('e7', 5), ('f4', 303), ('f5', 303), ('f6', -197), ('f7', -197)]
		Best Move Chosen for depth 1 - (d3, 403)

	c6

		Depth 1:
		Black:
		b3
		b4
		b5
		b6
		b7
		d7
		e7
		f5
		f6
		f7
		[('b3', 401), ('b4', 301), ('b5', 201), ('b6', 201), ('b7', 401), ('d7', 201), ('e7', -97), ('f5', 301), ('f6', 301), ('f7', 1)]
		Best Move Chosen for depth 1 - (b3, 401)

	c7

		Depth 1:
		Black:
		b3
		b4
		c3
		d7
		e7
		f5
		f6
		f7
		[('b3', -97), ('b4', -97), ('c3', -97), ('d7', 303), ('e7', 107), ('f5', 103), ('f6', 203), ('f7', -197)]
		Best Move Chosen for depth 1 - (d7, 303)

	e3

		Depth 1:
		Black:
		b3
		b4
		c3
		d3
		f2
		f4
		f5
		f6
		f7
		[('b3', -297), ('b4', -297), ('c3', -297), ('d3', 203), ('f2', 203), ('f4', 505), ('f5', 503), ('f6', 105), ('f7', 3)]
		Best Move Chosen for depth 1 - (f4, 505)

	f4

		Depth 1:
		Black:
		b3
		c3
		d3
		e3
		f5
		f6
		f7
		g3
		[('b3', -199), ('c3', -299), ('d3', 101), ('e3', 201), ('f5', 203), ('f6', -399), ('f7', -299), ('g3', 203)]
		Best Move Chosen for depth 1 - (f5, 203)

	[('b5', -401), ('c3', -403), ('c6', -401), ('c7', -303), ('e3', -505), ('f4', -203)]
	Best Move Chosen for depth 2 - (f4, -203)

e7

	Depth 2:
	White:
	b5

		Depth 1:
		Black:
		a5
		b3
		b4
		b6
		c6
		d6
		[('a5', 9), ('b3', 7), ('b4', -295), ('b6', -95), ('c6', 5), ('d6', -95)]
		Best Move Chosen for depth 1 - (a5, 9)

	c6

		Depth 1:
		Black:
		b3
		b4
		b5
		b6
		b7
		d6
		[('b3', 7), ('b4', -295), ('b5', 207), ('b6', -95), ('b7', 7), ('d6', -195)]
		Best Move Chosen for depth 1 - (b5, 207)

	d3

		Depth 1:
		Black:
		b3
		b4
		c2
		c3
		c6
		e3
		[('b3', -193), ('b4', 7), ('c2', -295), ('c3', 107), ('c6', -95), ('e3', 5)]
		Best Move Chosen for depth 1 - (c3, 107)

	f4

		Depth 1:
		Black:
		b3
		c3
		c6
		e3
		f5
		g3
		[('b3', -195), ('c3', -395), ('c6', 205), ('e3', 5), ('f5', -397), ('g3', -397)]
		Best Move Chosen for depth 1 - (c6, 205)

	f5

		Depth 1:
		Black:
		b3
		b4
		c3
		c6
		d6
		f6
		g4
		g5
		g6
		[('b3', -193), ('b4', -295), ('c3', -295), ('c6', -195), ('d6', -195), ('f6', 205), ('g4', -395), ('g5', 9), ('g6', -395)]
		Best Move Chosen for depth 1 - (f6, 205)

	f7

		Depth 1:
		Black:
		b4
		c3
		c6
		d6
		g7
		[('b4', -395), ('c3', -395), ('c6', 5), ('d6', 105), ('g7', -395)]
		Best Move Chosen for depth 1 - (d6, 105)

	g2

		Depth 1:
		Black:
		b3
		b4
		c3
		d6
		e3
		f4
		[('b3', 5), ('b4', -397), ('c3', -397), ('d6', 303), ('e3', 103), ('f4', 103)]
		Best Move Chosen for depth 1 - (d6, 303)

	[('b5', -9), ('c6', -207), ('d3', -107), ('f4', -205), ('f5', -205), ('f7', -105), ('g2', -303)]
	Best Move Chosen for depth 2 - (b5, -9)

f5

	Depth 2:
	White:
	c6

		Depth 1:
		Black:
		b3
		b4
		b5
		b6
		b7
		d7
		e7
		f7
		[('b3', 105), ('b4', 105), ('b5', 305), ('b6', 405), ('b7', 305), ('d7', -95), ('e7', 5), ('f7', 5)]
		Best Move Chosen for depth 1 - (b6, 405)

	e3

		Depth 1:
		Black:
		b3
		b4
		c3
		d3
		d7
		f2
		f4
		f6
		f7
		[('b3', -497), ('b4', -497), ('c3', -497), ('d3', 105), ('d7', -197), ('f2', 103), ('f4', 503), ('f6', 503), ('f7', -197)]
		Best Move Chosen for depth 1 - (f4, 503)

	f4

		Depth 1:
		Black:
		b3
		c3
		d3
		d7
		e3
		e7
		f7
		g3
		[('b3', -197), ('c3', -195), ('d3', 205), ('d7', -397), ('e3', 205), ('e7', -397), ('f7', -397), ('g3', 103)]
		Best Move Chosen for depth 1 - (d3, 205)

	g4

		Depth 1:
		Black:
		b3
		b4
		c3
		e7
		f7
		g5
		g6
		h5
		[('b3', 5), ('b4', 5), ('c3', 5), ('e7', 5), ('f7', 5), ('g5', 405), ('g6', 405), ('h5', 205)]
		Best Move Chosen for depth 1 - (g5, 405)

	[('c6', -405), ('e3', -503), ('f4', -205), ('g4', -405)]
	Best Move Chosen for depth 2 - (f4, -205)

f6

	Depth 2:
	White:
	b5

		Depth 1:
		Black:
		a5
		b4
		b6
		c6
		d6
		e7
		[('a5', 207), ('b4', -97), ('b6', -197), ('c6', 303), ('d6', -95), ('e7', 3)]
		Best Move Chosen for depth 1 - (c6, 303)

	c6

		Depth 1:
		Black:
		b4
		b5
		b6
		b7
		d6
		e7
		[('b4', -97), ('b5', 405), ('b6', -197), ('b7', 305), ('d6', -195), ('e7', 3)]
		Best Move Chosen for depth 1 - (b5, 405)

	d3

		Depth 1:
		Black:
		b4
		c2
		c3
		c6
		d6
		e3
		e7
		[('b4', 105), ('c2', -397), ('c3', 205), ('c6', 103), ('d6', -197), ('e3', -97), ('e7', -197)]
		Best Move Chosen for depth 1 - (c3, 205)

	e3

		Depth 1:
		Black:
		b4
		c3
		c6
		d3
		d6
		f2
		f4
		f5
		[('b4', -299), ('c3', -299), ('c6', 203), ('d3', -99), ('d6', -197), ('f2', -99), ('f4', -99), ('f5', 503)]
		Best Move Chosen for depth 1 - (f5, 503)

	f4

		Depth 1:
		Black:
		c3
		c6
		d6
		e3
		e7
		f5
		g3
		[('c3', -97), ('c6', 403), ('d6', -399), ('e3', -97), ('e7', -399), ('f5', 1), ('g3', -199)]
		Best Move Chosen for depth 1 - (c6, 403)

	f5

		Depth 1:
		Black:
		b4
		c3
		c6
		d6
		e7
		f4
		g5
		g6
		[('b4', -197), ('c3', -197), ('c6', 3), ('d6', -395), ('e7', 205), ('f4', -497), ('g5', 207), ('g6', -497)]
		Best Move Chosen for depth 1 - (g5, 207)

	g2

		Depth 1:
		Black:
		b4
		c3
		d6
		e3
		e7
		f4
		[('b4', -99), ('c3', -99), ('d6', 303), ('e3', 1), ('e7', 1), ('f4', 1)]
		Best Move Chosen for depth 1 - (d6, 303)

	g6

		Depth 1:
		Black:
		b4
		c3
		c6
		d6
		e7
		g7
		[('b4', -197), ('c3', -197), ('c6', 203), ('d6', 303), ('e7', -197), ('g7', -97)]
		Best Move Chosen for depth 1 - (d6, 303)

	[('b5', -303), ('c6', -405), ('d3', -205), ('e3', -503), ('f4', -403), ('f5', -207), ('g2', -303), ('g6', -303)]
	Best Move Chosen for depth 2 - (d3, -205)

[('b4', 203), ('c3', 201), ('c6', 101), ('d6', 203), ('e7', 9), ('f5', 205), ('f6', 205)]
Best Move Chosen for depth 3 - (f5, 205)

White AI's turn using strategy B

Depth 4:
White:
c6

	Depth 3:
	Black:
	b3

		Depth 2:
		White:
		a2

			Depth 1:
			Black:
			b4
			b5
			b6
			b7
			d6
			d7
			e7
			[('b4', 101), ('b5', 203), ('b6', -99), ('b7', 203), ('d6', 201), ('d7', -199), ('e7', -99)]
			Best Move Chosen for depth 1 - (b5, 203)

		c3

			Depth 1:
			Black:
			b2
			b4
			[('b2', 105), ('b4', 405)]
			Best Move Chosen for depth 1 - (b4, 405)

		e3

			Depth 1:
			Black:
			b5
			b7
			c7
			d3
			d7
			f4
			[('b5', -499), ('b7', -599), ('c7', -597), ('d3', 105), ('d7', -299), ('f4', 703)]
			Best Move Chosen for depth 1 - (f4, 703)

		g2

			Depth 1:
			Black:
			b5
			[('b5', 303)]
			Best Move Chosen for depth 1 - (b5, 303)

		g4

			Depth 1:
			Black:
			b5
			b6
			b7
			c7
			e7
			[('b5', 5), ('b6', 5), ('b7', 105), ('c7', 7), ('e7', 205)]
			Best Move Chosen for depth 1 - (e7, 205)

		g5

			Depth 1:
			Black:
			b6
			b7
			[('b6', 101), ('b7', 203)]
			Best Move Chosen for depth 1 - (b7, 203)

		[('a2', -203), ('c3', -405), ('e3', -703), ('g2', -303), ('g4', -205), ('g5', -203)]
		Best Move Chosen for depth 2 - (a2, -203)

	b4

		Depth 2:
		White:
		a3

			Depth 1:
			Black:
			a4
			b5
			b6
			b7
			c7
			d7
			e7
			f7
			[('a4', 205), ('b5', -195), ('b6', -95), ('b7', -95), ('c7', -93), ('d7', -95), ('e7', 5), ('f7', 5)]
			Best Move Chosen for depth 1 - (a4, 205)

		b3

			Depth 1:
			Black:
			b2
			b5
			[('b2', -197), ('b5', 205)]
			Best Move Chosen for depth 1 - (b5, 205)

		c3

			Depth 1:
			Black:
			b2
			b3
			[('b2', 105), ('b3', 405)]
			Best Move Chosen for depth 1 - (b3, 405)

		e3

			Depth 1:
			Black:
			b5
			b7
			c7
			d3
			d6
			d7
			f4
			[('b5', -399), ('b7', -599), ('c7', -597), ('d3', 105), ('d6', -299), ('d7', -299), ('f4', 603)]
			Best Move Chosen for depth 1 - (f4, 603)

		g2

			Depth 1:
			Black:
			b5
			[('b5', 403)]
			Best Move Chosen for depth 1 - (b5, 403)

		g4

			Depth 1:
			Black:
			b5
			b6
			b7
			c7
			d6
			[('b5', 5), ('b6', 5), ('b7', 105), ('c7', 7), ('d6', 205)]
			Best Move Chosen for depth 1 - (d6, 205)

		g5

			Depth 1:
			Black:
			b6
			b7
			c7
			d6
			e7
			f6
			f7
			g6
			[('b6', 101), ('b7', 203), ('c7', -97), ('d6', 203), ('e7', 3), ('f6', 201), ('f7', 203), ('g6', 301)]
			Best Move Chosen for depth 1 - (g6, 301)

		[('a3', -205), ('b3', -205), ('c3', -405), ('e3', -603), ('g2', -403), ('g4', -205), ('g5', -301)]
		Best Move Chosen for depth 2 - (a3, -205)

	b5

		Depth 2:
		White:
		a4

			Depth 1:
			Black:
			a5
			b3
			b4
			b7
			c3
			c7
			d7
			e7
			f7
			[('a5', 505), ('b3', -95), ('b4', 5), ('b7', 105), ('c3', 5), ('c7', 105), ('d7', 105), ('e7', 205), ('f7', 205)]
			Best Move Chosen for depth 1 - (a5, 505)

		a6

			Depth 1:
			Black:
			a5
			[('a5', 505)]
			Best Move Chosen for depth 1 - (a5, 505)

		e3

			Depth 1:
			Black:
			b3
			b4
			b7
			c3
			c7
			d3
			d7
			f2
			f4
			f6
			[('b3', -297), ('b4', -197), ('b7', -197), ('c3', -397), ('c7', -197), ('d3', -193), ('d7', -395), ('f2', 203), ('f4', 503), ('f6', 603)]
			Best Move Chosen for depth 1 - (f6, 603)

		f4

			Depth 1:
			Black:
			b3
			b7
			c3
			c7
			d3
			d7
			e3
			e7
			f7
			g3
			[('b3', -97), ('b7', -197), ('c3', -95), ('c7', -197), ('d3', -293), ('d7', -595), ('e3', 305), ('e7', -197), ('f7', -197), ('g3', 203)]
			Best Move Chosen for depth 1 - (e3, 305)

		g2

			Depth 1:
			Black:
			b4
			c3
			c7
			d3
			d6
			[('b4', 1), ('c3', -99), ('c7', 101), ('d3', -97), ('d6', 1001)]
			Best Move Chosen for depth 1 - (d6, 1001)

		g4

			Depth 1:
			Black:
			b3
			b4
			b7
			c3
			c7
			d3
			d7
			e7
			f7
			g5
			[('b3', 5), ('b4', 5), ('b7', 205), ('c3', 5), ('c7', 205), ('d3', 5), ('d7', 205), ('e7', 205), ('f7', 205), ('g5', 505)]
			Best Move Chosen for depth 1 - (g5, 505)

		[('a4', -505), ('a6', -505), ('e3', -603), ('f4', -305), ('g2', -1001), ('g4', -505)]
		Best Move Chosen for depth 2 - (f4, -305)

	b6

		Depth 2:
		White:
		a6

			Depth 1:
			Black:
			a7
			b3
			b4
			b7
			c3
			c7
			d7
			e7
			f7
			[('a7', 505), ('b3', 105), ('b4', 105), ('b7', 105), ('c3', 105), ('c7', 205), ('d7', 205), ('e7', 205), ('f7', 205)]
			Best Move Chosen for depth 1 - (a7, 505)

		e3

			Depth 1:
			Black:
			b3
			b4
			b7
			c3
			c7
			d3
			d6
			d7
			f2
			f4
			[('b3', -197), ('b4', -197), ('b7', -97), ('c3', -297), ('c7', -97), ('d3', 305), ('d6', -197), ('d7', 103), ('f2', 403), ('f4', 603)]
			Best Move Chosen for depth 1 - (f4, 603)

		f4

			Depth 1:
			Black:
			b3
			b7
			c3
			c7
			d3
			d6
			d7
			e3
			e7
			f7
			g3
			[('b3', 3), ('b7', -97), ('c3', 5), ('c7', -97), ('d3', 405), ('d6', -97), ('d7', -97), ('e3', 405), ('e7', -97), ('f7', -97), ('g3', 403)]
			Best Move Chosen for depth 1 - (d3, 405)

		g2

			Depth 1:
			Black:
			b4
			c3
			c7
			d3
			d6
			[('b4', -99), ('c3', -99), ('c7', 201), ('d3', 101), ('d6', 603)]
			Best Move Chosen for depth 1 - (d6, 603)

		g4

			Depth 1:
			Black:
			b3
			b4
			b7
			c3
			c7
			d6
			e7
			f7
			g5
			[('b3', 5), ('b4', 5), ('b7', 205), ('c3', 5), ('c7', 205), ('d6', 205), ('e7', 205), ('f7', 205), ('g5', 605)]
			Best Move Chosen for depth 1 - (g5, 605)

		[('a6', -505), ('e3', -603), ('f4', -405), ('g2', -603), ('g4', -605)]
		Best Move Chosen for depth 2 - (f4, -405)

	b7

		Depth 2:
		White:
		c7

			Depth 1:
			Black:
			b3
			b4
			b5
			b6
			d7
			e7
			f7
			[('b3', -195), ('b4', -195), ('b5', 5), ('b6', 105), ('d7', -293), ('e7', -195), ('f7', -195)]
			Best Move Chosen for depth 1 - (b6, 105)

		[('c7', -105)]
		Best Move Chosen for depth 2 - (c7, -105)

	d7

		Depth 2:
		White:
		e3

			Depth 1:
			Black:
			b3
			b4
			b5
			b7
			c3
			d3
			e2
			[('b3', -395), ('b4', 107), ('b5', -293), ('b7', -195), ('c3', 105), ('d3', -193), ('e2', -95)]
			Best Move Chosen for depth 1 - (b4, 107)

		[('e3', -107)]
		Best Move Chosen for depth 2 - (e3, -107)

	e7

		Depth 2:
		White:
		e3

			Depth 1:
			Black:
			b3
			b4
			b5
			b7
			c3
			d3
			e2
			[('b3', -295), ('b4', 207), ('b5', -95), ('b7', -195), ('c3', 205), ('d3', -93), ('e2', 5)]
			Best Move Chosen for depth 1 - (b4, 207)

		[('e3', -207)]
		Best Move Chosen for depth 2 - (e3, -207)

	f7

		Depth 2:
		White:
		e3

			Depth 1:
			Black:
			b3
			b4
			b5
			b7
			c3
			d3
			e2
			[('b3', -295), ('b4', 207), ('b5', -95), ('b7', -195), ('c3', 205), ('d3', -93), ('e2', 5)]
			Best Move Chosen for depth 1 - (b4, 207)

		[('e3', -207)]
		Best Move Chosen for depth 2 - (e3, -207)

	[('b3', 203), ('b4', 205), ('b5', 305), ('b6', 405), ('b7', 105), ('d7', 107), ('e7', 207), ('f7', 207)]
	Best Move Chosen for depth 3 - (b6, 405)

e3

	Depth 3:
	Black:
	b3

		Depth 2:
		White:
		a2

			Depth 1:
			Black:
			b4
			c3
			c6
			d3
			d6
			d7
			f2
			f4
			f6
			[('b4', -101), ('c3', -101), ('c6', 101), ('d3', -99), ('d6', -201), ('d7', -201), ('f2', -1), ('f4', 199), ('f6', 99)]
			Best Move Chosen for depth 1 - (f4, 199)

		b4

			Depth 1:
			Black:
			a3
			b5
			c3
			d3
			d7
			f2
			f7
			[('a3', -499), ('b5', -599), ('c3', -199), ('d3', -195), ('d7', -599), ('f2', -97), ('f7', -599)]
			Best Move Chosen for depth 1 - (f2, -97)

		b5

			Depth 1:
			Black:
			a5
			[('a5', -93)]
			Best Move Chosen for depth 1 - (a5, -93)

		b6

			Depth 1:
			Black:
			b5
			c6
			d3
			[('b5', -299), ('c6', -299), ('d3', 105)]
			Best Move Chosen for depth 1 - (d3, 105)

		c3

			Depth 1:
			Black:
			c2
			d3
			d7
			f2
			f4
			[('c2', -597), ('d3', -191), ('d7', -597), ('f2', -195), ('f4', 305)]
			Best Move Chosen for depth 1 - (f4, 305)

		c6

			Depth 1:
			Black:
			b7
			[('b7', 7)]
			Best Move Chosen for depth 1 - (b7, 7)

		g2

			Depth 1:
			Black:
			d3
			[('d3', 103)]
			Best Move Chosen for depth 1 - (d3, 103)

		g3

			Depth 1:
			Black:
			d3
			[('d3', 103)]
			Best Move Chosen for depth 1 - (d3, 103)

		g4

			Depth 1:
			Black:
			d3
			[('d3', -97)]
			Best Move Chosen for depth 1 - (d3, -97)

		g5

			Depth 1:
			Black:
			d3
			f2
			f4
			[('d3', -197), ('f2', -197), ('f4', 403)]
			Best Move Chosen for depth 1 - (f4, 403)

		g6

			Depth 1:
			Black:
			d3
			f2
			f4
			[('d3', -197), ('f2', -197), ('f4', 203)]
			Best Move Chosen for depth 1 - (f4, 203)

		[('a2', -199), ('b4', 97), ('b5', 93), ('b6', -105), ('c3', -305), ('c6', -7), ('g2', -103), ('g3', -103), ('g4', 97), ('g5', -403), ('g6', -203)]
		Best Move Chosen for depth 2 - (b4, 97)

	b4

		Depth 2:
		White:
		a4

			Depth 1:
			Black:
			a3
			b3
			c3
			d3
			d7
			f2
			f7
			[('a3', -201), ('b3', -501), ('c3', -401), ('d3', 3), ('d7', -401), ('f2', 1), ('f7', -401)]
			Best Move Chosen for depth 1 - (d3, 3)

		b3

			Depth 1:
			Black:
			b2
			c3
			[('b2', -299), ('c3', 101)]
			Best Move Chosen for depth 1 - (c3, 101)

		b5

			Depth 1:
			Black:
			a5
			a6
			b6
			c6
			[('a5', -93), ('a6', -199), ('b6', -297), ('c6', 305)]
			Best Move Chosen for depth 1 - (c6, 305)

		b6

			Depth 1:
			Black:
			b5
			c6
			d3
			[('b5', -299), ('c6', -299), ('d3', 105)]
			Best Move Chosen for depth 1 - (d3, 105)

		c3

			Depth 1:
			Black:
			c2
			d2
			d3
			[('c2', -597), ('d2', -697), ('d3', 7)]
			Best Move Chosen for depth 1 - (d3, 7)

		c6

			Depth 1:
			Black:
			b7
			[('b7', 7)]
			Best Move Chosen for depth 1 - (b7, 7)

		g2

			Depth 1:
			Black:
			d3
			[('d3', 103)]
			Best Move Chosen for depth 1 - (d3, 103)

		g3

			Depth 1:
			Black:
			d3
			[('d3', 103)]
			Best Move Chosen for depth 1 - (d3, 103)

		g4

			Depth 1:
			Black:
			d3
			f2
			f4
			[('d3', -97), ('f2', -97), ('f4', 203)]
			Best Move Chosen for depth 1 - (f4, 203)

		g5

			Depth 1:
			Black:
			d3
			f2
			f4
			[('d3', -197), ('f2', -197), ('f4', 403)]
			Best Move Chosen for depth 1 - (f4, 403)

		g6

			Depth 1:
			Black:
			d3
			f2
			f4
			[('d3', -197), ('f2', -197), ('f4', 203)]
			Best Move Chosen for depth 1 - (f4, 203)

		[('a4', -3), ('b3', -101), ('b5', -305), ('b6', -105), ('c3', -7), ('c6', -7), ('g2', -103), ('g3', -103), ('g4', -203), ('g5', -403), ('g6', -203)]
		Best Move Chosen for depth 2 - (a4, -3)

	c3

		Depth 2:
		White:
		b2

			Depth 1:
			Black:
			c2
			d3
			d7
			f2
			f4
			f7
			[('c2', -399), ('d3', 5), ('d7', -499), ('f2', -97), ('f4', 403), ('f7', -499)]
			Best Move Chosen for depth 1 - (f4, 403)

		b3

			Depth 1:
			Black:
			a3
			b4
			c6
			d3
			d6
			d7
			f2
			f4
			f6
			[('a3', -299), ('b4', 101), ('c6', 3), ('d3', -297), ('d6', -299), ('d7', -199), ('f2', -99), ('f4', 101), ('f6', 1)]
			Best Move Chosen for depth 1 - (b4, 101)

		b4

			Depth 1:
			Black:
			a3
			a5
			b3
			d3
			d7
			f2
			f6
			[('a3', -499), ('a5', -499), ('b3', -199), ('d3', -95), ('d7', -599), ('f2', -97), ('f6', 303)]
			Best Move Chosen for depth 1 - (f6, 303)

		b5

			Depth 1:
			Black:
			a5
			a6
			b6
			c6
			[('a5', -93), ('a6', -199), ('b6', 1), ('c6', 205)]
			Best Move Chosen for depth 1 - (c6, 205)

		b6

			Depth 1:
			Black:
			b5
			c6
			d3
			d7
			f4
			[('b5', -299), ('c6', -299), ('d3', 5), ('d7', -399), ('f4', 603)]
			Best Move Chosen for depth 1 - (f4, 603)

		c6

			Depth 1:
			Black:
			b7
			c7
			d3
			d6
			d7
			f2
			f4
			[('b7', 7), ('c7', -497), ('d3', -195), ('d6', -297), ('d7', -497), ('f2', -197), ('f4', 103)]
			Best Move Chosen for depth 1 - (f4, 103)

		g2

			Depth 1:
			Black:
			d3
			[('d3', 103)]
			Best Move Chosen for depth 1 - (d3, 103)

		g3

			Depth 1:
			Black:
			d3
			[('d3', 103)]
			Best Move Chosen for depth 1 - (d3, 103)

		g4

			Depth 1:
			Black:
			d3
			f2
			f4
			[('d3', -97), ('f2', -97), ('f4', 203)]
			Best Move Chosen for depth 1 - (f4, 203)

		g5

			Depth 1:
			Black:
			d3
			f2
			f4
			[('d3', -197), ('f2', -197), ('f4', 403)]
			Best Move Chosen for depth 1 - (f4, 403)

		g6

			Depth 1:
			Black:
			d3
			f2
			f4
			[('d3', -197), ('f2', -197), ('f4', 203)]
			Best Move Chosen for depth 1 - (f4, 203)

		[('b2', -403), ('b3', -101), ('b4', -303), ('b5', -205), ('b6', -603), ('c6', -103), ('g2', -103), ('g3', -103), ('g4', -203), ('g5', -403), ('g6', -203)]
		Best Move Chosen for depth 2 - (b3, -101)

	d3

		Depth 2:
		White:
		b5

			Depth 1:
			Black:
			a5
			a6
			b4
			b6
			c6
			d6
			d7
			e7
			f6
			[('a5', 109), ('a6', -195), ('b4', 3), ('b6', 3), ('c6', 303), ('d6', 103), ('d7', -97), ('e7', 5), ('f6', 3)]
			Best Move Chosen for depth 1 - (c6, 303)

		c3

			Depth 1:
			Black:
			b3
			b4
			b5
			c2
			d7
			e7
			f7
			[('b3', -793), ('b4', 7), ('b5', -795), ('c2', -793), ('d7', -795), ('e7', -493), ('f7', -795)]
			Best Move Chosen for depth 1 - (b4, 7)

		[('b5', -303), ('c3', -7)]
		Best Move Chosen for depth 2 - (c3, -7)

	d7

		Depth 2:
		White:
		b5

			Depth 1:
			Black:
			a5
			b3
			b4
			b6
			c6
			d3
			d6
			e2
			f2
			f4
			f6
			[('a5', -93), ('b3', 3), ('b4', -99), ('b6', 1), ('c6', 203), ('d3', -97), ('d6', 1), ('e2', 5), ('f2', 1), ('f4', 301), ('f6', 301)]
			Best Move Chosen for depth 1 - (f4, 301)

		b6

			Depth 1:
			Black:
			b3
			b5
			d3
			e2
			[('b3', -399), ('b5', -399), ('d3', -195), ('e2', 5)]
			Best Move Chosen for depth 1 - (e2, 5)

		[('b5', -301), ('b6', -5)]
		Best Move Chosen for depth 2 - (b6, -5)

	f2

		Depth 2:
		White:
		b5

			Depth 1:
			Black:
			a5
			b4
			b6
			c6
			d3
			d6
			d7
			e7
			f4
			f6
			[('a5', 207), ('b4', 1), ('b6', 101), ('c6', 203), ('d3', 101), ('d6', 1), ('d7', 1), ('e7', 5), ('f4', 1), ('f6', 201)]
			Best Move Chosen for depth 1 - (a5, 207)

		c3

			Depth 1:
			Black:
			b3
			c2
			d3
			d7
			e7
			f7
			[('b3', -697), ('c2', -695), ('d3', 205), ('d7', -797), ('e7', -193), ('f7', -797)]
			Best Move Chosen for depth 1 - (d3, 205)

		c6

			Depth 1:
			Black:
			b4
			b5
			[('b4', 1), ('b5', 405)]
			Best Move Chosen for depth 1 - (b5, 405)

		e2

			Depth 1:
			Black:
			b3
			b4
			c3
			d1
			d2
			d3
			[('b3', -497), ('b4', -497), ('c3', -497), ('d1', -197), ('d2', -297), ('d3', 505)]
			Best Move Chosen for depth 1 - (d3, 505)

		g2

			Depth 1:
			Black:
			b3
			b4
			c3
			d3
			[('b3', -197), ('b4', -197), ('c3', -197), ('d3', 403)]
			Best Move Chosen for depth 1 - (d3, 403)

		g4

			Depth 1:
			Black:
			b3
			b4
			c3
			e7
			f4
			[('b3', -97), ('b4', -97), ('c3', -97), ('e7', 7), ('f4', 403)]
			Best Move Chosen for depth 1 - (f4, 403)

		g5

			Depth 1:
			Black:
			b3
			b4
			c3
			e7
			f4
			f6
			f7
			h5
			[('b3', -197), ('b4', -197), ('c3', -197), ('e7', 7), ('f4', 103), ('f6', 203), ('f7', -97), ('h5', 307)]
			Best Move Chosen for depth 1 - (h5, 307)

		g6

			Depth 1:
			Black:
			b3
			b4
			c3
			e7
			f4
			f6
			[('b3', -197), ('b4', -197), ('c3', -197), ('e7', 7), ('f4', 103), ('f6', 403)]
			Best Move Chosen for depth 1 - (f6, 403)

		[('b5', -207), ('c3', -205), ('c6', -405), ('e2', -505), ('g2', -403), ('g4', -403), ('g5', -307), ('g6', -403)]
		Best Move Chosen for depth 2 - (c3, -205)

	f4

		Depth 2:
		White:
		b5

			Depth 1:
			Black:
			a5
			[('a5', 407)]
			Best Move Chosen for depth 1 - (a5, 407)

		b6

			Depth 1:
			Black:
			b3
			b4
			[('b3', 201), ('b4', 603)]
			Best Move Chosen for depth 1 - (b4, 603)

		c3

			Depth 1:
			Black:
			b3
			b4
			c2
			d2
			d3
			d6
			[('b3', -97), ('b4', 305), ('c2', 5), ('d2', -197), ('d3', 405), ('d6', 503)]
			Best Move Chosen for depth 1 - (d6, 503)

		c6

			Depth 1:
			Black:
			b3
			[('b3', 703)]
			Best Move Chosen for depth 1 - (b3, 703)

		g3

			Depth 1:
			Black:
			b3
			b4
			c3
			d7
			e2
			e7
			f2
			f6
			[('b3', -99), ('b4', -99), ('c3', -99), ('d7', 1), ('e2', 201), ('e7', 203), ('f2', 305), ('f6', 601)]
			Best Move Chosen for depth 1 - (f6, 601)

		g4

			Depth 1:
			Black:
			b3
			c3
			d3
			f2
			f6
			f7
			g5
			h5
			[('b3', -303), ('c3', -403), ('d3', 299), ('f2', 199), ('f6', 199), ('f7', -203), ('g5', 199), ('h5', -3)]
			Best Move Chosen for depth 1 - (d3, 299)

		g5

			Depth 1:
			Black:
			b3
			b4
			c3
			d3
			[('b3', 101), ('b4', 101), ('c3', 101), ('d3', 401)]
			Best Move Chosen for depth 1 - (d3, 401)

		[('b5', -407), ('b6', -603), ('c3', -503), ('c6', -703), ('g3', -601), ('g4', -299), ('g5', -401)]
		Best Move Chosen for depth 2 - (g4, -299)

	f6

		Depth 2:
		White:
		b6

			Depth 1:
			Black:
			b3
			b5
			c3
			[('b3', -99), ('b5', 201), ('c3', 601)]
			Best Move Chosen for depth 1 - (c3, 601)

		c6

			Depth 1:
			Black:
			b4
			b5
			[('b4', 201), ('b5', 603)]
			Best Move Chosen for depth 1 - (b5, 603)

		g2

			Depth 1:
			Black:
			b3
			b4
			c3
			d3
			d6
			d7
			e2
			e7
			f2
			[('b3', 303), ('b4', 303), ('c3', 303), ('d3', 503), ('d6', 303), ('d7', 303), ('e2', 305), ('e7', 303), ('f2', 603)]
			Best Move Chosen for depth 1 - (f2, 603)

		g3

			Depth 1:
			Black:
			b3
			b4
			c3
			d3
			d6
			d7
			e2
			e7
			f2
			f4
			f7
			g2
			[('b3', 303), ('b4', 303), ('c3', 303), ('d3', 503), ('d6', 303), ('d7', 303), ('e2', 305), ('e7', 303), ('f2', 503), ('f4', 503), ('f7', 303), ('g2', 605)]
			Best Move Chosen for depth 1 - (g2, 605)

		g4

			Depth 1:
			Black:
			b3
			b4
			c3
			d3
			d6
			e2
			e7
			f2
			f4
			[('b3', -97), ('b4', -97), ('c3', -97), ('d3', 403), ('d6', 103), ('e2', 205), ('e7', 103), ('f2', 303), ('f4', 805)]
			Best Move Chosen for depth 1 - (f4, 805)

		g6

			Depth 1:
			Black:
			b3
			b4
			c3
			d3
			e2
			e7
			f2
			f4
			f7
			g5
			g7
			[('b3', 1), ('b4', 1), ('c3', 1), ('d3', 401), ('e2', 203), ('e7', 1), ('f2', 301), ('f4', 301), ('f7', 1), ('g5', 401), ('g7', 501)]
			Best Move Chosen for depth 1 - (g7, 501)

		[('b6', -601), ('c6', -603), ('g2', -603), ('g3', -605), ('g4', -805), ('g6', -501)]
		Best Move Chosen for depth 2 - (g6, -501)

	[('b3', -97), ('b4', 3), ('c3', 101), ('d3', 7), ('d7', 5), ('f2', 205), ('f4', 299), ('f6', 501)]
	Best Move Chosen for depth 3 - (f6, 501)

f4

	Depth 3:
	Black:
	b3

		Depth 2:
		White:
		a2

			Depth 1:
			Black:
			c3
			c6
			d3
			d7
			e3
			e7
			g3
			[('c3', 1), ('c6', 201), ('d3', -201), ('d7', -601), ('e3', -199), ('e7', -601), ('g3', -101)]
			Best Move Chosen for depth 1 - (c6, 201)

		b4

			Depth 1:
			Black:
			a3
			b5
			c3
			d3
			d7
			e3
			e7
			f7
			g3
			[('a3', -197), ('b5', -297), ('c3', 105), ('d3', 5), ('d7', -497), ('e3', 105), ('e7', -497), ('f7', -497), ('g3', 3)]
			Best Move Chosen for depth 1 - (c3, 105)

		b6

			Depth 1:
			Black:
			b5
			c3
			c6
			d3
			d7
			e3
			e7
			f7
			g3
			g4
			[('b5', 103), ('c3', -197), ('c6', 103), ('d3', -95), ('d7', -297), ('e3', 103), ('e7', -297), ('f7', -297), ('g3', -197), ('g4', 107)]
			Best Move Chosen for depth 1 - (g4, 107)

		c6

			Depth 1:
			Black:
			b7
			c3
			c7
			d3
			d7
			e3
			e7
			f7
			g3
			g4
			[('b7', 7), ('c3', -197), ('c7', -397), ('d3', -297), ('d7', -597), ('e3', -395), ('e7', -597), ('f7', -195), ('g3', -197), ('g4', -193)]
			Best Move Chosen for depth 1 - (b7, 7)

		d6

			Depth 1:
			Black:
			c6
			d3
			d7
			e3
			e7
			f7
			g4
			[('c6', -197), ('d3', -499), ('d7', -699), ('e3', -499), ('e7', -599), ('f7', -397), ('g4', -395)]
			Best Move Chosen for depth 1 - (c6, -197)

		f2

			Depth 1:
			Black:
			c3
			[('c3', 203)]
			Best Move Chosen for depth 1 - (c3, 203)

		f6

			Depth 1:
			Black:
			d3
			e3
			f7
			g4
			[('d3', -299), ('e3', -399), ('f7', -793), ('g4', -95)]
			Best Move Chosen for depth 1 - (g4, -95)

		g2

			Depth 1:
			Black:
			c3
			[('c3', 203)]
			Best Move Chosen for depth 1 - (c3, 203)

		g4

			Depth 1:
			Black:
			c3
			[('c3', 3)]
			Best Move Chosen for depth 1 - (c3, 3)

		g6

			Depth 1:
			Black:
			c3
			[('c3', 3)]
			Best Move Chosen for depth 1 - (c3, 3)

		[('a2', -201), ('b4', -105), ('b6', -107), ('c6', -7), ('d6', 197), ('f2', -203), ('f6', 95), ('g2', -203), ('g4', -3), ('g6', -3)]
		Best Move Chosen for depth 2 - (d6, 197)

	c3

		Depth 2:
		White:
		b3

			Depth 1:
			Black:
			a3
			b4
			c6
			d3
			d6
			d7
			e3
			e7
			g3
			g4
			[('a3', -197), ('b4', 203), ('c6', 5), ('d3', -297), ('d6', 203), ('d7', -297), ('e3', -297), ('e7', -297), ('g3', 3), ('g4', -295)]
			Best Move Chosen for depth 1 - (b4, 203)

		b4

			Depth 1:
			Black:
			a3
			a5
			b3
			d3
			d7
			e3
			[('a3', -297), ('a5', -297), ('b3', 3), ('d3', 105), ('d7', -597), ('e3', 205)]
			Best Move Chosen for depth 1 - (e3, 205)

		c6

			Depth 1:
			Black:
			b7
			c7
			d3
			d6
			[('b7', -191), ('c7', -395), ('d3', -395), ('d6', 205)]
			Best Move Chosen for depth 1 - (d6, 205)

		d6

			Depth 1:
			Black:
			d3
			d7
			e7
			f6
			f7
			g4
			[('d3', -495), ('d7', -593), ('e7', -595), ('f6', 5), ('f7', -395), ('g4', -393)]
			Best Move Chosen for depth 1 - (f6, 5)

		f2

			Depth 1:
			Black:
			d3
			[('d3', 5)]
			Best Move Chosen for depth 1 - (d3, 5)

		f6

			Depth 1:
			Black:
			e3
			e7
			f7
			g3
			g4
			g5
			g7
			[('e3', -195), ('e7', -295), ('f7', -389), ('g3', -295), ('g4', -93), ('g5', -295), ('g7', -195)]
			Best Move Chosen for depth 1 - (g4, -93)

		g2

			Depth 1:
			Black:
			d3
			[('d3', 5)]
			Best Move Chosen for depth 1 - (d3, 5)

		g4

			Depth 1:
			Black:
			e3
			[('e3', 5)]
			Best Move Chosen for depth 1 - (e3, 5)

		g6

			Depth 1:
			Black:
			e3
			e7
			f6
			[('e3', -95), ('e7', -295), ('f6', 307)]
			Best Move Chosen for depth 1 - (f6, 307)

		[('b3', -203), ('b4', -205), ('c6', -205), ('d6', -5), ('f2', -5), ('f6', 93), ('g2', -5), ('g4', -5), ('g6', -307)]
		Best Move Chosen for depth 2 - (f6, 93)

	d3

		Depth 2:
		White:
		c6

			Depth 1:
			Black:
			b3
			b4
			b5
			b6
			[('b3', -95), ('b4', -95), ('b5', -293), ('b6', 405)]
			Best Move Chosen for depth 1 - (b6, 405)

		d6

			Depth 1:
			Black:
			b3
			b4
			b5
			c3
			d7
			e7
			f6
			f7
			g4
			[('b3', -495), ('b4', -595), ('b5', -495), ('c3', -495), ('d7', -393), ('e7', 9), ('f6', 205), ('f7', -295), ('g4', -195)]
			Best Move Chosen for depth 1 - (f6, 205)

		e2

			Depth 1:
			Black:
			b3
			b4
			c2
			[('b3', 5), ('b4', 5), ('c2', 505)]
			Best Move Chosen for depth 1 - (c2, 505)

		e3

			Depth 1:
			Black:
			b3
			b4
			b5
			c3
			d7
			f2
			f6
			f7
			g4
			[('b3', -897), ('b4', -897), ('b5', -897), ('c3', -897), ('d7', -597), ('f2', -197), ('f6', 3), ('f7', -597), ('g4', 305)]
			Best Move Chosen for depth 1 - (g4, 305)

		f2

			Depth 1:
			Black:
			b3
			b4
			b5
			c3
			d7
			[('b3', 5), ('b4', 5), ('b5', 5), ('c3', 5), ('d7', 305)]
			Best Move Chosen for depth 1 - (d7, 305)

		f6

			Depth 1:
			Black:
			b3
			b4
			b5
			c3
			e7
			f7
			g3
			g4
			g5
			[('b3', -95), ('b4', -95), ('b5', -95), ('c3', -95), ('e7', 5), ('f7', 11), ('g3', 105), ('g4', 105), ('g5', 205)]
			Best Move Chosen for depth 1 - (g5, 205)

		g4

			Depth 1:
			Black:
			b3
			b4
			b5
			c3
			e7
			[('b3', 5), ('b4', 5), ('b5', 5), ('c3', 5), ('e7', 305)]
			Best Move Chosen for depth 1 - (e7, 305)

		[('c6', -405), ('d6', -205), ('e2', -505), ('e3', -305), ('f2', -305), ('f6', -205), ('g4', -305)]
		Best Move Chosen for depth 2 - (d6, -205)

	d7

		Depth 2:
		White:
		b6

			Depth 1:
			Black:
			b3
			b5
			c3
			d3
			e3
			g3
			[('b3', -297), ('b5', -297), ('c3', -197), ('d3', -95), ('e3', 303), ('g3', -297)]
			Best Move Chosen for depth 1 - (e3, 303)

		c6

			Depth 1:
			Black:
			b3
			b5
			b7
			c3
			d3
			e3
			g3
			[('b3', -197), ('b5', -595), ('b7', 105), ('c3', -99), ('d3', -99), ('e3', 101), ('g3', -99)]
			Best Move Chosen for depth 1 - (b7, 105)

		[('b6', -303), ('c6', -105)]
		Best Move Chosen for depth 2 - (c6, -105)

	e3

		Depth 2:
		White:
		c6

			Depth 1:
			Black:
			b3
			b4
			b5
			b6
			[('b3', -95), ('b4', -95), ('b5', 305), ('b6', 405)]
			Best Move Chosen for depth 1 - (b6, 405)

		d2

			Depth 1:
			Black:
			b3
			b4
			c3
			d3
			[('b3', 5), ('b4', 5), ('c3', 105), ('d3', 605)]
			Best Move Chosen for depth 1 - (d3, 605)

		d6

			Depth 1:
			Black:
			b3
			b4
			c3
			d7
			e7
			f6
			f7
			g4
			g5
			[('b3', -495), ('b4', -595), ('c3', -495), ('d7', -393), ('e7', 9), ('f6', 205), ('f7', -295), ('g4', -195), ('g5', -95)]
			Best Move Chosen for depth 1 - (f6, 205)

		[('c6', -405), ('d2', -605), ('d6', -205)]
		Best Move Chosen for depth 2 - (d6, -205)

	e7

		Depth 2:
		White:
		b6

			Depth 1:
			Black:
			b3
			b5
			c3
			d3
			e3
			g3
			[('b3', -297), ('b5', -297), ('c3', -197), ('d3', -95), ('e3', 303), ('g3', -297)]
			Best Move Chosen for depth 1 - (e3, 303)

		c6

			Depth 1:
			Black:
			b3
			b5
			b7
			c3
			d3
			e3
			g3
			[('b3', -97), ('b5', -197), ('b7', 105), ('c3', 1), ('d3', 1), ('e3', 201), ('g3', 1)]
			Best Move Chosen for depth 1 - (e3, 201)

		[('b6', -303), ('c6', -201)]
		Best Move Chosen for depth 2 - (c6, -201)

	f7

		Depth 2:
		White:
		b6

			Depth 1:
			Black:
			b3
			b5
			c3
			d3
			e3
			g3
			[('b3', -297), ('b5', -297), ('c3', -197), ('d3', -95), ('e3', 303), ('g3', -297)]
			Best Move Chosen for depth 1 - (e3, 303)

		c6

			Depth 1:
			Black:
			b3
			b5
			b7
			c3
			d3
			e3
			g3
			[('b3', -97), ('b5', -197), ('b7', 105), ('c3', 1), ('d3', 1), ('e3', 201), ('g3', 1)]
			Best Move Chosen for depth 1 - (e3, 201)

		[('b6', -303), ('c6', -201)]
		Best Move Chosen for depth 2 - (c6, -201)

	g3

		Depth 2:
		White:
		b6

			Depth 1:
			Black:
			b3
			b4
			b5
			c3
			d3
			d7
			e3
			e7
			f7
			[('b3', -197), ('b4', 107), ('b5', 203), ('c3', 303), ('d3', 305), ('d7', -297), ('e3', 303), ('e7', -297), ('f7', -297)]
			Best Move Chosen for depth 1 - (d3, 305)

		c6

			Depth 1:
			Black:
			b4
			b5
			b7
			c3
			d3
			d7
			e3
			e7
			[('b4', 5), ('b5', 203), ('b7', 205), ('c3', 301), ('d3', 1), ('d7', -99), ('e3', 101), ('e7', 1)]
			Best Move Chosen for depth 1 - (c3, 301)

		d6

			Depth 1:
			Black:
			b4
			c3
			c6
			[('b4', -393), ('c3', -195), ('c6', 305)]
			Best Move Chosen for depth 1 - (c6, 305)

		f6

			Depth 1:
			Black:
			b3
			b4
			c3
			d3
			d6
			[('b3', -697), ('b4', -293), ('c3', -697), ('d3', 5), ('d6', 303)]
			Best Move Chosen for depth 1 - (d6, 303)

		g2

			Depth 1:
			Black:
			b3
			b4
			c3
			d3
			[('b3', 3), ('b4', 107), ('c3', 105), ('d3', 505)]
			Best Move Chosen for depth 1 - (d3, 505)

		g4

			Depth 1:
			Black:
			b3
			c3
			d3
			[('b3', -199), ('c3', -197), ('d3', 401)]
			Best Move Chosen for depth 1 - (d3, 401)

		g6

			Depth 1:
			Black:
			b3
			b4
			c3
			d3
			[('b3', -297), ('b4', 7), ('c3', -195), ('d3', 303)]
			Best Move Chosen for depth 1 - (d3, 303)

		[('b6', -305), ('c6', -301), ('d6', -305), ('f6', -303), ('g2', -505), ('g4', -401), ('g6', -303)]
		Best Move Chosen for depth 2 - (c6, -301)

	[('b3', -197), ('c3', -93), ('d3', 205), ('d7', 105), ('e3', 205), ('e7', 201), ('f7', 201), ('g3', 301)]
	Best Move Chosen for depth 3 - (g3, 301)

g4

	Depth 3:
	Black:
	b3

		Depth 2:
		White:
		a2

			Depth 1:
			Black:
			b4
			[('b4', 301)]
			Best Move Chosen for depth 1 - (b4, 301)

		b5

			Depth 1:
			Black:
			a6
			b6
			[('a6', 201), ('b6', 401)]
			Best Move Chosen for depth 1 - (b6, 401)

		d3

			Depth 1:
			Black:
			d2
			e2
			e3
			[('d2', 5), ('e2', 5), ('e3', 405)]
			Best Move Chosen for depth 1 - (e3, 405)

		e2

			Depth 1:
			Black:
			e7
			f7
			g2
			g5
			g6
			[('e7', 5), ('f7', 5), ('g2', 205), ('g5', 205), ('g6', 205)]
			Best Move Chosen for depth 1 - (g2, 205)

		e3

			Depth 1:
			Black:
			d3
			f2
			f4
			f6
			f7
			g5
			[('d3', -97), ('f2', -97), ('f4', 203), ('f6', -97), ('f7', -197), ('g5', 205)]
			Best Move Chosen for depth 1 - (g5, 205)

		[('a2', -301), ('b5', -401), ('d3', -405), ('e2', -205), ('e3', -205)]
		Best Move Chosen for depth 2 - (e2, -205)

	b4

		Depth 2:
		White:
		b3

			Depth 1:
			Black:
			b2
			c3
			[('b2', -97), ('c3', 503)]
			Best Move Chosen for depth 1 - (c3, 503)

		b5

			Depth 1:
			Black:
			a6
			b6
			c6
			d6
			e7
			f6
			f7
			g6
			h5
			[('a6', 101), ('b6', 103), ('c6', 403), ('d6', 303), ('e7', 3), ('f6', 201), ('f7', 203), ('g6', 301), ('h5', 201)]
			Best Move Chosen for depth 1 - (c6, 403)

		d3

			Depth 1:
			Black:
			d2
			e2
			e3
			[('d2', 5), ('e2', 5), ('e3', 405)]
			Best Move Chosen for depth 1 - (e3, 405)

		e2

			Depth 1:
			Black:
			e7
			f7
			g2
			g5
			g6
			[('e7', 5), ('f7', 5), ('g2', 205), ('g5', 205), ('g6', 205)]
			Best Move Chosen for depth 1 - (g2, 205)

		[('b3', -503), ('b5', -403), ('d3', -405), ('e2', -205)]
		Best Move Chosen for depth 2 - (e2, -205)

	c3

		Depth 2:
		White:
		b3

			Depth 1:
			Black:
			a3
			b4
			[('a3', -97), ('b4', 503)]
			Best Move Chosen for depth 1 - (b4, 503)

		b5

			Depth 1:
			Black:
			a6
			b6
			c6
			d6
			e7
			f6
			f7
			g6
			h5
			[('a6', 101), ('b6', 401), ('c6', 303), ('d6', 301), ('e7', 103), ('f6', 301), ('f7', 203), ('g6', 301), ('h5', 201)]
			Best Move Chosen for depth 1 - (b6, 401)

		d3

			Depth 1:
			Black:
			d2
			e2
			e3
			e7
			f4
			[('d2', 5), ('e2', 5), ('e3', 107), ('e7', -195), ('f4', 405)]
			Best Move Chosen for depth 1 - (f4, 405)

		e2

			Depth 1:
			Black:
			e7
			f7
			g2
			g5
			g6
			[('e7', 5), ('f7', 5), ('g2', 205), ('g5', 205), ('g6', 205)]
			Best Move Chosen for depth 1 - (g2, 205)

		[('b3', -503), ('b5', -401), ('d3', -405), ('e2', -205)]
		Best Move Chosen for depth 2 - (e2, -205)

	e7

		Depth 2:
		White:
		b5

			Depth 1:
			Black:
			b3
			[('b3', 303)]
			Best Move Chosen for depth 1 - (b3, 303)

		c6

			Depth 1:
			Black:
			b3
			b4
			b5
			b6
			b7
			g5
			g6
			h3
			h5
			[('b3', 205), ('b4', 205), ('b5', 205), ('b6', 205), ('b7', 205), ('g5', 5), ('g6', 5), ('h3', 7), ('h5', 5)]
			Best Move Chosen for depth 1 - (b3, 205)

		[('b5', -303), ('c6', -205)]
		Best Move Chosen for depth 2 - (c6, -205)

	f7

		Depth 2:
		White:
		b5

			Depth 1:
			Black:
			b3
			[('b3', 303)]
			Best Move Chosen for depth 1 - (b3, 303)

		c6

			Depth 1:
			Black:
			b3
			b4
			b5
			b6
			b7
			g5
			g6
			h3
			h5
			[('b3', 205), ('b4', 205), ('b5', 205), ('b6', 205), ('b7', 205), ('g5', 5), ('g6', 5), ('h3', 7), ('h5', 5)]
			Best Move Chosen for depth 1 - (b3, 205)

		[('b5', -303), ('c6', -205)]
		Best Move Chosen for depth 2 - (c6, -205)

	g5

		Depth 2:
		White:
		c6

			Depth 1:
			Black:
			b3
			[('b3', 305)]
			Best Move Chosen for depth 1 - (b3, 305)

		e2

			Depth 1:
			Black:
			b3
			b4
			c3
			d7
			e7
			f7
			g2
			[('b3', 205), ('b4', 205), ('c3', 205), ('d7', 105), ('e7', 105), ('f7', 105), ('g2', 605)]
			Best Move Chosen for depth 1 - (g2, 605)

		e3

			Depth 1:
			Black:
			b3
			b4
			c3
			d3
			[('b3', -197), ('b4', -197), ('c3', -197), ('d3', 405)]
			Best Move Chosen for depth 1 - (d3, 405)

		f4

			Depth 1:
			Black:
			b3
			c3
			d3
			[('b3', -97), ('c3', -95), ('d3', 405)]
			Best Move Chosen for depth 1 - (d3, 405)

		g6

			Depth 1:
			Black:
			b3
			b4
			c3
			d7
			e7
			f7
			h3
			[('b3', 105), ('b4', 105), ('c3', 105), ('d7', -95), ('e7', -95), ('f7', -195), ('h3', 305)]
			Best Move Chosen for depth 1 - (h3, 305)

		[('c6', -305), ('e2', -605), ('e3', -405), ('f4', -405), ('g6', -305)]
		Best Move Chosen for depth 2 - (c6, -305)

	[('b3', 205), ('b4', 205), ('c3', 205), ('e7', 205), ('f7', 205), ('g5', 305)]
	Best Move Chosen for depth 3 - (g5, 305)

[('c6', -405), ('e3', -501), ('f4', -301), ('g4', -305)]
Best Move Chosen for depth 4 - (f4, -301)

Black AI's turn using strategy A

Depth 3:
Black:
b3

	Depth 2:
	White:
	a2

		Depth 1:
		Black:
		c3
		c6
		d3
		d7
		e3
		e7
		g3
		[('c3', 1), ('c6', 201), ('d3', -201), ('d7', -601), ('e3', -199), ('e7', -601), ('g3', -101)]
		Best Move Chosen for depth 1 - (c6, 201)

	b4

		Depth 1:
		Black:
		a3
		b5
		c3
		d3
		d7
		e3
		e7
		f7
		g3
		[('a3', -197), ('b5', -297), ('c3', 105), ('d3', 5), ('d7', -497), ('e3', 105), ('e7', -497), ('f7', -497), ('g3', 3)]
		Best Move Chosen for depth 1 - (c3, 105)

	b6

		Depth 1:
		Black:
		b5
		c3
		c6
		d3
		d7
		e3
		e7
		f7
		g3
		g4
		[('b5', 103), ('c3', -197), ('c6', 103), ('d3', -95), ('d7', -297), ('e3', 103), ('e7', -297), ('f7', -297), ('g3', -197), ('g4', 107)]
		Best Move Chosen for depth 1 - (g4, 107)

	c6

		Depth 1:
		Black:
		b7
		c3
		c7
		d3
		d7
		e3
		e7
		f7
		g3
		g4
		[('b7', 7), ('c3', -197), ('c7', -397), ('d3', -297), ('d7', -597), ('e3', -395), ('e7', -597), ('f7', -195), ('g3', -197), ('g4', -193)]
		Best Move Chosen for depth 1 - (b7, 7)

	d6

		Depth 1:
		Black:
		c6
		d3
		d7
		e3
		e7
		f7
		g4
		[('c6', -197), ('d3', -499), ('d7', -699), ('e3', -499), ('e7', -599), ('f7', -397), ('g4', -395)]
		Best Move Chosen for depth 1 - (c6, -197)

	f2

		Depth 1:
		Black:
		c3
		d3
		d7
		e3
		e7
		f1
		f7
		g2
		g3
		g4
		[('c3', 203), ('d3', 5), ('d7', 3), ('e3', -95), ('e7', 3), ('f1', -293), ('f7', 3), ('g2', 205), ('g3', -97), ('g4', 7)]
		Best Move Chosen for depth 1 - (g2, 205)

	f6

		Depth 1:
		Black:
		d3
		e3
		f7
		g4
		g5
		[('d3', -299), ('e3', -399), ('f7', -793), ('g4', -95), ('g5', -197)]
		Best Move Chosen for depth 1 - (g4, -95)

	g2

		Depth 1:
		Black:
		c3
		d3
		d7
		e3
		e7
		f2
		f7
		g3
		g4
