----Game at 2012-04-15 21-04-29_Moves----
AI vs AI game
Black AI using strategy A
White AI using strategy B

Black: c5 0.217000007629s
White: e6 0.540999889374s
Black: f3 0.421000003815s
White: c4 0.961000204086s
Black: f5 0.964999914169s
White: f4 2.38999986649s
Black: g3 1.6819999218s
White: d6 2.85899996758s
Black: c6 2.0110001564s
White: e3 2.83400011063s
Black: c7 3.64800000191s
White: d7 4.15299987793s
Black: d3 3.51399993896s
White: g5 9.07299995422s
Black: b4 3.8069999218s
White: b6 6.1320002079s
Black: d8 3.82999992371s
White: b5 5.09399986267s
Black: e7 4.01799988747s
White: f6 7.28500008583s
Black: g4 4.40599989891s
White: c3 5.16700005531s
Black: b3 5.59000015259s
White: a3 3.34100008011s
Black: h5 3.49799990654s
White: h4 4.00300002098s
Black: h6 3.01900005341s
White: h2 4.32699990273s
Black: g6 2.57299995422s
White: b8 4.03099989891s
Black: c8 1.76900005341s
White: e8 2.78700017929s
Black: f7 1.81100010872s
White: f8 3.8069999218s
Black: g7 1.50099992752s
White: f2 2.53500008583s
Black: h3 1.30199980736s
White: h7 6.55400013924s
Black: a7 0.911000013351s
White: a6 0.700999975204s
Black: a5 0.467000007629s
White: a4 0.279000043869s
Black: a2 0.351000070572s
White: h8 1.29100012779s
Black: g8 0.269000053406s
White: e2 0.289999961853s
Black: c2 0.427000045776s
White: b7 0.306999921799s
Black: a8 0.220999956131s
White: d2 0.196999788284s
Black: d1 0.147000074387s
White: b1 0.0869998931885s
Black: c1 0.085000038147s
White: e1 0.0339999198914s
Black: g2 0.0230000019073s
White: g1 0.0190000534058s
Black: h1 0.00699996948242s
White: b2 0.00200009346008s
Black: a1 0.00100016593933s
White: f1 0.0s

Game Over
Black: 27 - White: 37
White wins
