----Game at 2012-04-15 23-26-04_Moves----
AI vs AI game
Black AI using strategy A
White AI using strategy B

Black: c5 0.219000101089s
White: e6 0.515000104904s
Black: f3 0.43700003624s
White: c4 0.967000007629s
Black: f5 0.951999902725s
White: f4 2.3710000515s
Black: g3 1.68499994278s
White: d6 2.85500001907s
Black: c6 2.02799987793s
White: e3 2.83899998665s
Black: c7 3.71199989319s
White: d7 4.16499996185s
Black: d3 3.5569999218s
White: g5 9.04800009727s
Black: b4 3.8220000267s
White: b6 6.14599990845s
Black: d8 3.82199978828s
White: b5 5.1320002079s
Black: e7 4.03999996185s
White: f6 7.28499984741s
Black: g4 4.41500020027s
White: c3 5.30399990082s
Black: b3 5.74099993706s
White: a3 3.38599991798s
Black: h5 3.58799982071s
White: h4 4.00900006294s
Black: h6 3.02699995041s
White: h2 4.33700013161s
Black: g6 2.58999991417s
White: b8 4.00900006294s
Black: c8 1.76300001144s
White: e8 2.77699995041s
Black: f7 1.80999994278s
White: f8 3.80700016022s
Black: g7 1.49699997902s
White: f2 2.58499979973s
Black: h3 1.30999994278s
White: h7 6.5680000782s
Black: a7 0.90499997139s
White: a6 0.701999902725s
Black: a5 0.46799993515s
White: a4 0.281000137329s
Black: a2 0.343999862671s
White: h8 1.31100010872s
Black: g8 0.265000104904s
White: e2 0.297000169754s
Black: c2 0.421000003815s
White: b7 0.31200003624s
Black: a8 0.219000101089s
White: d2 0.203000068665s
Black: d1 0.155999898911s
White: b1 0.0930001735687s
Black: c1 0.0939998626709s
White: e1 0.0310001373291s
Black: g2 0.0160000324249s
White: g1 0.0150001049042s
Black: h1 0.0s
White: b2 0.0s
Black: a1 0.0s
White: f1 0.0s

Game Over
Black: 27 - White: 37
White wins
