----Game at 2012-04-18 11-31-09_Moves----
AI vs AI game
Black AI using strategy B
White AI using strategy A

Black: c5 0.343999862671s
White: e6 0.229000091553s
Black: f3 0.453000068665s
White: c4 0.47000002861s
Black: c3 1.53699994087s
White: b2 0.960999965668s
Black: c2 0.390000104904s
White: b3 1.58400011063s
Black: a1 1.36000013351s
White: d3 1.75s
Black: a4 1.77600002289s
White: b5 1.97000002861s
Black: b4 0.493999958038s
White: a5 1.83899998665s
Black: a6 1.64100003242s
White: f4 2.0609998703s
Black: d2 1.13599991798s
White: a3 1.23399996758s
Black: a2 0.630000114441s
White: e1 1.23399996758s
Black: e3 1.48399996758s
White: e2 1.19799995422s
Black: g4 1.60800004005s
White: b1 1.45199990273s
Black: d1 0.924999952316s
White: f5 1.18400001526s
Black: c1 1.01599979401s
White: f1 1.17300009727s
Black: f2 0.611000061035s
White: g2 0.645999908447s
Black: g6 1.08899998665s
White: f6 0.839999914169s
Black: g1 0.697000026703s
White: h4 0.526999950409s
Black: h1 0.410000085831s
White: h7 0.095999956131s
Black: d6 0.200999975204s
White: c7 0.0759999752045s
Black: g7 0.289999961853s
White: g8 0.101000070572s
Black: c6 0.337000131607s
White: d7 0.151000022888s
Black: e7 0.610000133514s
White: b6 0.115000009537s
Black: h8 0.47000002861s
White: f8 0.131000041962s
Black: e8 0.388999938965s
White: d8 0.085000038147s
Black: h6 0.192999839783s
White: f7 0.0329999923706s
Black: h5 0.105999946594s
White: h3 0.0110001564026s
Black: b8 0.0490000247955s
White: b7 0.00699996948242s
Black: a8 0.0269999504089s
White: a7 0.00399994850159s
Black: c8 0.00999999046326s
Black: g5 0.00600004196167s
Black: g3 0.00200009346008s
Black: h2 0.000999927520752s

Game Over
Black: 61 - White: 3
Black wins
Black:
Average Time: 0.634125001729 - Number of moves: 32
White:
Average Time: 0.755785712174 - Number of moves: 28
