----Game at 2012-04-15 20-44-46_Moves----
AI vs AI game
Black AI using strategy A
White AI using strategy B

Black: c5 0.22000002861s
White: e6 0.519999980927s
Black: f3 0.446999788284s
White: c4 0.958000183105s
Black: f5 0.942000150681s
White: f4 2.3710000515s
Black: g3 1.67900013924s
White: d6 2.85800004005s
Black: c6 2.02300000191s
White: e3 2.82400012016s
Black: c7 3.65799999237s
White: d7 4.15899991989s
Black: d3 3.51699995995s
White: g5 9.02500009537s
Black: b4 3.80999994278s
White: b6 6.08999991417s
Black: d8 3.82899999619s
White: b5 5.10400009155s
Black: e7 4.02699995041s
White: f6 7.24699997902s
Black: g4 4.40499997139s
White: c3 5.16900014877s
Black: b3 5.59699988365s
White: a3 3.31200003624s
Black: h5 3.50499987602s
White: h4 4.02399992943s
Black: h6 3.0119998455s
White: h2 4.32500004768s
Black: g6 2.58400011063s
White: b8 4.01300001144s
Black: c8 1.76899981499s
White: e8 2.79400014877s
Black: f7 1.8140001297s
White: f8 3.80800008774s
Black: g7 1.49699997902s
White: f2 2.52900004387s
Black: h3 1.29799985886s
White: h7 6.56500005722s
Black: a7 0.901999950409s
White: a6 0.699999809265s
Black: a5 0.46599984169s
White: a4 0.27999997139s
Black: a2 0.351000070572s
White: h8 1.29200005531s
Black: g8 0.269000053406s
White: e2 0.291000127792s
Black: c2 0.427999973297s
White: b7 0.307999849319s
Black: a8 0.218999862671s
White: d2 0.197999954224s
Black: d1 0.146999835968s
White: b1 0.0869998931885s
Black: c1 0.085000038147s
White: e1 0.0339999198914s
Black: g2 0.0230000019073s
White: g1 0.0199999809265s
Black: h1 0.00599980354309s
White: b2 0.00200009346008s
Black: a1 0.0019998550415s
White: f1 0.0s

Game Over
Black: 27 - White: 37
White wins
